Library\Bee\artifacts\mvdfrm\Unity.VisualScripting.Core.ref.dll_27ACA245D8399F39.mvfrm
Library\Bee\artifacts\mvdfrm\Unity.VisualScripting.Flow.ref.dll_6EBD829C5A4313E8.mvfrm
Library\Bee\artifacts\mvdfrm\UnityEngine.UI.ref.dll_FAE6DBEA21006BE5.mvfrm
Library\Bee\artifacts\mvdfrm\Unity.Burst.Cecil.dll_35D85AB291ED1B76.mvfrm
Library\Bee\artifacts\mvdfrm\Unity.Burst.Cecil.Mdb.dll_C9E82A499CD08C33.mvfrm
Library\Bee\artifacts\mvdfrm\Unity.Burst.Cecil.Pdb.dll_E13AA2B91B858DB6.mvfrm
Library\Bee\artifacts\mvdfrm\Unity.Burst.Cecil.Rocks.dll_A206CB1861AC8096.mvfrm
Library\Bee\artifacts\mvdfrm\Unity.Burst.Unsafe.dll_BDA96702491E783D.mvfrm
Library\Bee\artifacts\mvdfrm\Unity.VisualScripting.Antlr3.Runtime.dll_63E834C7A9308185.mvfrm
Library\Bee\artifacts\mvdfrm\UnityEngine.AccessibilityModule.dll_3C8C627DBB3C751B.mvfrm
Library\Bee\artifacts\mvdfrm\UnityEngine.AIModule.dll_4615A56E4BC1306F.mvfrm
Library\Bee\artifacts\mvdfrm\UnityEngine.AndroidJNIModule.dll_81E0EA6431612DAD.mvfrm
Library\Bee\artifacts\mvdfrm\UnityEngine.AnimationModule.dll_0F08192FCC421501.mvfrm
Library\Bee\artifacts\mvdfrm\UnityEngine.ARModule.dll_FF886A71A8DE8F38.mvfrm
Library\Bee\artifacts\mvdfrm\UnityEngine.AssetBundleModule.dll_0795F796E3CE464F.mvfrm
Library\Bee\artifacts\mvdfrm\UnityEngine.AudioModule.dll_DC2CFF763B30CDB3.mvfrm
Library\Bee\artifacts\mvdfrm\UnityEngine.ClothModule.dll_43155C71154DAC97.mvfrm
Library\Bee\artifacts\mvdfrm\UnityEngine.ClusterInputModule.dll_28655B4CCE2AC277.mvfrm
Library\Bee\artifacts\mvdfrm\UnityEngine.ClusterRendererModule.dll_9E6766CC9E676DBA.mvfrm
Library\Bee\artifacts\mvdfrm\UnityEngine.CoreModule.dll_B21232B0CBA4EEA6.mvfrm
Library\Bee\artifacts\mvdfrm\UnityEngine.CrashReportingModule.dll_CE203DE1F5E825FE.mvfrm
Library\Bee\artifacts\mvdfrm\UnityEngine.DirectorModule.dll_CE0EAC3FEB0EB643.mvfrm
Library\Bee\artifacts\mvdfrm\UnityEngine.dll_A6FD74D851783A0F.mvfrm
Library\Bee\artifacts\mvdfrm\UnityEngine.DSPGraphModule.dll_D3600DA95D6F8764.mvfrm
Library\Bee\artifacts\mvdfrm\UnityEngine.GameCenterModule.dll_AC2E347EF7A21E9E.mvfrm
Library\Bee\artifacts\mvdfrm\UnityEngine.GIModule.dll_DE51EE7BE7701889.mvfrm
Library\Bee\artifacts\mvdfrm\UnityEngine.GridModule.dll_8F834E9EE3F9849D.mvfrm
Library\Bee\artifacts\mvdfrm\UnityEngine.HotReloadModule.dll_9050D735A7753083.mvfrm
Library\Bee\artifacts\mvdfrm\UnityEngine.ImageConversionModule.dll_0A59647D208C25AE.mvfrm
Library\Bee\artifacts\mvdfrm\UnityEngine.IMGUIModule.dll_148C9EDD01626194.mvfrm
Library\Bee\artifacts\mvdfrm\UnityEngine.InputLegacyModule.dll_98DB12B57BBFFC40.mvfrm
Library\Bee\artifacts\mvdfrm\UnityEngine.InputModule.dll_42A2C726B168F257.mvfrm
Library\Bee\artifacts\mvdfrm\UnityEngine.JSONSerializeModule.dll_9CA3EBB9BA77D5A5.mvfrm
Library\Bee\artifacts\mvdfrm\UnityEngine.LocalizationModule.dll_66B2259F65A6B570.mvfrm
Library\Bee\artifacts\mvdfrm\UnityEngine.ParticleSystemModule.dll_2132872E63F9B18C.mvfrm
Library\Bee\artifacts\mvdfrm\UnityEngine.PerformanceReportingModule.dll_BFF25A339FA8A965.mvfrm
Library\Bee\artifacts\mvdfrm\UnityEngine.Physics2DModule.dll_5BAE09206D3F0C96.mvfrm
Library\Bee\artifacts\mvdfrm\UnityEngine.PhysicsModule.dll_346972B8C5B47CE4.mvfrm
Library\Bee\artifacts\mvdfrm\UnityEngine.ProfilerModule.dll_0054E57684683D50.mvfrm
Library\Bee\artifacts\mvdfrm\UnityEngine.RuntimeInitializeOnLoadManagerInitializerModule.dll_E98803CEE9F6A95F.mvfrm
Library\Bee\artifacts\mvdfrm\UnityEngine.ScreenCaptureModule.dll_B68B993ECEE40207.mvfrm
Library\Bee\artifacts\mvdfrm\UnityEngine.SharedInternalsModule.dll_8E6AA35297BA20FE.mvfrm
Library\Bee\artifacts\mvdfrm\UnityEngine.SpriteMaskModule.dll_955AA70F1911B418.mvfrm
Library\Bee\artifacts\mvdfrm\UnityEngine.SpriteShapeModule.dll_20F724F199707E59.mvfrm
Library\Bee\artifacts\mvdfrm\UnityEngine.StreamingModule.dll_C39D06801BC9CC3F.mvfrm
Library\Bee\artifacts\mvdfrm\UnityEngine.SubstanceModule.dll_A0481AC9671CCA4D.mvfrm
Library\Bee\artifacts\mvdfrm\UnityEngine.SubsystemsModule.dll_00080D70E7599C2B.mvfrm
Library\Bee\artifacts\mvdfrm\UnityEngine.TerrainModule.dll_4EAFEE279B72C5D2.mvfrm
Library\Bee\artifacts\mvdfrm\UnityEngine.TerrainPhysicsModule.dll_21AD30017D3CAC19.mvfrm
Library\Bee\artifacts\mvdfrm\UnityEngine.TextCoreFontEngineModule.dll_7BE20BEC45624D64.mvfrm
Library\Bee\artifacts\mvdfrm\UnityEngine.TextCoreTextEngineModule.dll_C3CA425DD4E60682.mvfrm
Library\Bee\artifacts\mvdfrm\UnityEngine.TextRenderingModule.dll_DFCB0B49861B81FC.mvfrm
Library\Bee\artifacts\mvdfrm\UnityEngine.TilemapModule.dll_EDAC55A8B32FA6DB.mvfrm
Library\Bee\artifacts\mvdfrm\UnityEngine.TLSModule.dll_4C4F92EA8B7EF4B8.mvfrm
Library\Bee\artifacts\mvdfrm\UnityEngine.UIElementsModule.dll_04466ED8EA85D822.mvfrm
Library\Bee\artifacts\mvdfrm\UnityEngine.UIElementsNativeModule.dll_C6C579F90178C539.mvfrm
Library\Bee\artifacts\mvdfrm\UnityEngine.UIModule.dll_4189439BA808361B.mvfrm
Library\Bee\artifacts\mvdfrm\UnityEngine.UmbraModule.dll_5701AB8EC8577926.mvfrm
Library\Bee\artifacts\mvdfrm\UnityEngine.UNETModule.dll_44B87A9A18B3E41F.mvfrm
Library\Bee\artifacts\mvdfrm\UnityEngine.UnityAnalyticsModule.dll_40D1F7F810210388.mvfrm
Library\Bee\artifacts\mvdfrm\UnityEngine.UnityConnectModule.dll_96286A46172AF05C.mvfrm
Library\Bee\artifacts\mvdfrm\UnityEngine.UnityCurlModule.dll_4224BA613C5606EE.mvfrm
Library\Bee\artifacts\mvdfrm\UnityEngine.UnityTestProtocolModule.dll_3AAF6C49D43F925C.mvfrm
Library\Bee\artifacts\mvdfrm\UnityEngine.UnityWebRequestAssetBundleModule.dll_EB696C2054268C59.mvfrm
Library\Bee\artifacts\mvdfrm\UnityEngine.UnityWebRequestAudioModule.dll_37EEAE12261373FD.mvfrm
Library\Bee\artifacts\mvdfrm\UnityEngine.UnityWebRequestModule.dll_1BF86C272B80C02D.mvfrm
Library\Bee\artifacts\mvdfrm\UnityEngine.UnityWebRequestTextureModule.dll_FFF0EE24B0C01B72.mvfrm
Library\Bee\artifacts\mvdfrm\UnityEngine.UnityWebRequestWWWModule.dll_8E8C87B9C4A5C2EE.mvfrm
Library\Bee\artifacts\mvdfrm\UnityEngine.VehiclesModule.dll_45D1A5BF653885DE.mvfrm
Library\Bee\artifacts\mvdfrm\UnityEngine.VFXModule.dll_CD2E2B5961EC5E25.mvfrm
Library\Bee\artifacts\mvdfrm\UnityEngine.VideoModule.dll_013683E0FDC2E958.mvfrm
Library\Bee\artifacts\mvdfrm\UnityEngine.VirtualTexturingModule.dll_EB522E67DA2745C4.mvfrm
Library\Bee\artifacts\mvdfrm\UnityEngine.VRModule.dll_945B6A2149C2BB93.mvfrm
Library\Bee\artifacts\mvdfrm\UnityEngine.WindModule.dll_28610DD95CDB6D0F.mvfrm
Library\Bee\artifacts\mvdfrm\UnityEngine.XRModule.dll_C71A2D25D2FD08F1.mvfrm