%YAML 1.1
%TAG !u! tag:unity3d.com,2011:
--- !u!114 &11400000
MonoBehaviour:
  m_ObjectHideFlags: 0
  m_CorrespondingSourceObject: {fileID: 0}
  m_PrefabInstance: {fileID: 0}
  m_PrefabAsset: {fileID: 0}
  m_GameObject: {fileID: 0}
  m_Enabled: 1
  m_EditorHideFlags: 0
  m_Script: {fileID: 11500000, guid: defe2424e2294add87e7fc8f38137ba9, type: 3}
  m_Name: NodySettings
  m_EditorClassIdentifier: 
  Graph: {fileID: 11400000, guid: 25ebd027fe6611d4da2ab2137aa9f847, type: 2}
