-target:library
-out:"Library/Bee/artifacts/1900b0aE.dag/Assembly-CSharp.dll"
-refout:"Library/Bee/artifacts/1900b0aE.dag/Assembly-CSharp.ref.dll"
-define:UNITY_2021_3_7
-define:UNITY_2021_3
-define:UNITY_2021
-define:UNITY_5_3_OR_NEWER
-define:UNITY_5_4_OR_NEWER
-define:UNITY_5_5_OR_NEWER
-define:UNITY_5_6_OR_NEWER
-define:UNITY_2017_1_OR_NEWER
-define:UNITY_2017_2_OR_NEWER
-define:UNITY_2017_3_OR_NEWER
-define:UNITY_2017_4_OR_NEWER
-define:UNITY_2018_1_OR_NEWER
-define:UNITY_2018_2_OR_NEWER
-define:UNITY_2018_3_OR_NEWER
-define:UNITY_2018_4_OR_NEWER
-define:UNITY_2019_1_OR_NEWER
-define:UNITY_2019_2_OR_NEWER
-define:UNITY_2019_3_OR_NEWER
-define:UNITY_2019_4_OR_NEWER
-define:UNITY_2020_1_OR_NEWER
-define:UNITY_2020_2_OR_NEWER
-define:UNITY_2020_3_OR_NEWER
-define:UNITY_2021_1_OR_NEWER
-define:UNITY_2021_2_OR_NEWER
-define:UNITY_2021_3_OR_NEWER
-define:PLATFORM_ARCH_64
-define:UNITY_64
-define:UNITY_INCLUDE_TESTS
-define:USE_SEARCH_ENGINE_API
-define:USE_SEARCH_TABLE
-define:USE_SEARCH_MODULE
-define:USE_PROPERTY_DATABASE
-define:USE_SEARCH_EXTENSION_API
-define:SCENE_TEMPLATE_MODULE
-define:ENABLE_AR
-define:ENABLE_AUDIO
-define:ENABLE_CACHING
-define:ENABLE_CLOTH
-define:ENABLE_EVENT_QUEUE
-define:ENABLE_MICROPHONE
-define:ENABLE_MULTIPLE_DISPLAYS
-define:ENABLE_PHYSICS
-define:ENABLE_TEXTURE_STREAMING
-define:ENABLE_VIRTUALTEXTURING
-define:ENABLE_UNET
-define:ENABLE_LZMA
-define:ENABLE_UNITYEVENTS
-define:ENABLE_VR
-define:ENABLE_WEBCAM
-define:ENABLE_UNITYWEBREQUEST
-define:ENABLE_WWW
-define:ENABLE_CLOUD_SERVICES
-define:ENABLE_CLOUD_SERVICES_COLLAB
-define:ENABLE_CLOUD_SERVICES_COLLAB_SOFTLOCKS
-define:ENABLE_CLOUD_SERVICES_ADS
-define:ENABLE_CLOUD_SERVICES_USE_WEBREQUEST
-define:ENABLE_CLOUD_SERVICES_CRASH_REPORTING
-define:ENABLE_CLOUD_SERVICES_PURCHASING
-define:ENABLE_CLOUD_SERVICES_ANALYTICS
-define:ENABLE_CLOUD_SERVICES_UNET
-define:ENABLE_CLOUD_SERVICES_BUILD
-define:ENABLE_CLOUD_LICENSE
-define:ENABLE_EDITOR_HUB_LICENSE
-define:ENABLE_WEBSOCKET_CLIENT
-define:ENABLE_DIRECTOR_AUDIO
-define:ENABLE_DIRECTOR_TEXTURE
-define:ENABLE_MANAGED_JOBS
-define:ENABLE_MANAGED_TRANSFORM_JOBS
-define:ENABLE_MANAGED_ANIMATION_JOBS
-define:ENABLE_MANAGED_AUDIO_JOBS
-define:ENABLE_MANAGED_UNITYTLS
-define:INCLUDE_DYNAMIC_GI
-define:ENABLE_SCRIPTING_GC_WBARRIERS
-define:PLATFORM_SUPPORTS_MONO
-define:RENDER_SOFTWARE_CURSOR
-define:ENABLE_VIDEO
-define:ENABLE_ACCELERATOR_CLIENT_DEBUGGING
-define:PLATFORM_STANDALONE
-define:TEXTCORE_1_0_OR_NEWER
-define:PLATFORM_STANDALONE_WIN
-define:UNITY_STANDALONE_WIN
-define:UNITY_STANDALONE
-define:ENABLE_RUNTIME_GI
-define:ENABLE_MOVIES
-define:ENABLE_NETWORK
-define:ENABLE_NVIDIA
-define:ENABLE_CRUNCH_TEXTURE_COMPRESSION
-define:ENABLE_OUT_OF_PROCESS_CRASH_HANDLER
-define:ENABLE_CLUSTER_SYNC
-define:ENABLE_CLUSTERINPUT
-define:PLATFORM_UPDATES_TIME_OUTSIDE_OF_PLAYER_LOOP
-define:GFXDEVICE_WAITFOREVENT_MESSAGEPUMP
-define:ENABLE_WEBSOCKET_HOST
-define:ENABLE_MONO
-define:NET_STANDARD_2_0
-define:NET_STANDARD
-define:ENABLE_PROFILER
-define:DEBUG
-define:TRACE
-define:UNITY_ASSERTIONS
-define:UNITY_EDITOR
-define:UNITY_EDITOR_64
-define:UNITY_EDITOR_WIN
-define:ENABLE_UNITY_COLLECTIONS_CHECKS
-define:ENABLE_BURST_AOT
-define:UNITY_TEAM_LICENSE
-define:ENABLE_CUSTOM_RENDER_TEXTURE
-define:ENABLE_DIRECTOR
-define:ENABLE_LOCALIZATION
-define:ENABLE_SPRITES
-define:ENABLE_TERRAIN
-define:ENABLE_TILEMAP
-define:ENABLE_TIMELINE
-define:ENABLE_INPUT_SYSTEM
-define:ENABLE_LEGACY_INPUT_MANAGER
-define:JSON_NET_EXISTS
-define:CSHARP_7_OR_LATER
-define:CSHARP_7_3_OR_NEWER
-r:"D:/testFigmaConverter/local-cuisine/Library/PackageCache/com.unity.burst@1.6.6/Unity.Burst.CodeGen/Unity.Burst.Cecil.dll"
-r:"D:/testFigmaConverter/local-cuisine/Library/PackageCache/com.unity.burst@1.6.6/Unity.Burst.CodeGen/Unity.Burst.Cecil.Mdb.dll"
-r:"D:/testFigmaConverter/local-cuisine/Library/PackageCache/com.unity.burst@1.6.6/Unity.Burst.CodeGen/Unity.Burst.Cecil.Pdb.dll"
-r:"D:/testFigmaConverter/local-cuisine/Library/PackageCache/com.unity.burst@1.6.6/Unity.Burst.CodeGen/Unity.Burst.Cecil.Rocks.dll"
-r:"D:/testFigmaConverter/local-cuisine/Library/PackageCache/com.unity.burst@1.6.6/Unity.Burst.Unsafe.dll"
-r:"D:/testFigmaConverter/local-cuisine/Library/PackageCache/com.unity.nuget.newtonsoft-json@3.0.2/Runtime/Newtonsoft.Json.dll"
-r:"D:/testFigmaConverter/local-cuisine/Library/PackageCache/com.unity.visualscripting@1.7.8/Runtime/VisualScripting.Flow/Dependencies/NCalc/Unity.VisualScripting.Antlr3.Runtime.dll"
-r:"D:/unity hub/2021.3.7f1/Editor/Data/Managed/UnityEngine/UnityEditor.CoreModule.dll"
-r:"D:/unity hub/2021.3.7f1/Editor/Data/Managed/UnityEngine/UnityEditor.DeviceSimulatorModule.dll"
-r:"D:/unity hub/2021.3.7f1/Editor/Data/Managed/UnityEngine/UnityEditor.DiagnosticsModule.dll"
-r:"D:/unity hub/2021.3.7f1/Editor/Data/Managed/UnityEngine/UnityEditor.dll"
-r:"D:/unity hub/2021.3.7f1/Editor/Data/Managed/UnityEngine/UnityEditor.GraphViewModule.dll"
-r:"D:/unity hub/2021.3.7f1/Editor/Data/Managed/UnityEngine/UnityEditor.PackageManagerUIModule.dll"
-r:"D:/unity hub/2021.3.7f1/Editor/Data/Managed/UnityEngine/UnityEditor.QuickSearchModule.dll"
-r:"D:/unity hub/2021.3.7f1/Editor/Data/Managed/UnityEngine/UnityEditor.SceneTemplateModule.dll"
-r:"D:/unity hub/2021.3.7f1/Editor/Data/Managed/UnityEngine/UnityEditor.TextCoreFontEngineModule.dll"
-r:"D:/unity hub/2021.3.7f1/Editor/Data/Managed/UnityEngine/UnityEditor.TextCoreTextEngineModule.dll"
-r:"D:/unity hub/2021.3.7f1/Editor/Data/Managed/UnityEngine/UnityEditor.UIBuilderModule.dll"
-r:"D:/unity hub/2021.3.7f1/Editor/Data/Managed/UnityEngine/UnityEditor.UIElementsModule.dll"
-r:"D:/unity hub/2021.3.7f1/Editor/Data/Managed/UnityEngine/UnityEditor.UIElementsSamplesModule.dll"
-r:"D:/unity hub/2021.3.7f1/Editor/Data/Managed/UnityEngine/UnityEditor.UIServiceModule.dll"
-r:"D:/unity hub/2021.3.7f1/Editor/Data/Managed/UnityEngine/UnityEditor.UnityConnectModule.dll"
-r:"D:/unity hub/2021.3.7f1/Editor/Data/Managed/UnityEngine/UnityEngine.AccessibilityModule.dll"
-r:"D:/unity hub/2021.3.7f1/Editor/Data/Managed/UnityEngine/UnityEngine.AIModule.dll"
-r:"D:/unity hub/2021.3.7f1/Editor/Data/Managed/UnityEngine/UnityEngine.AndroidJNIModule.dll"
-r:"D:/unity hub/2021.3.7f1/Editor/Data/Managed/UnityEngine/UnityEngine.AnimationModule.dll"
-r:"D:/unity hub/2021.3.7f1/Editor/Data/Managed/UnityEngine/UnityEngine.ARModule.dll"
-r:"D:/unity hub/2021.3.7f1/Editor/Data/Managed/UnityEngine/UnityEngine.AssetBundleModule.dll"
-r:"D:/unity hub/2021.3.7f1/Editor/Data/Managed/UnityEngine/UnityEngine.AudioModule.dll"
-r:"D:/unity hub/2021.3.7f1/Editor/Data/Managed/UnityEngine/UnityEngine.ClothModule.dll"
-r:"D:/unity hub/2021.3.7f1/Editor/Data/Managed/UnityEngine/UnityEngine.ClusterInputModule.dll"
-r:"D:/unity hub/2021.3.7f1/Editor/Data/Managed/UnityEngine/UnityEngine.ClusterRendererModule.dll"
-r:"D:/unity hub/2021.3.7f1/Editor/Data/Managed/UnityEngine/UnityEngine.CoreModule.dll"
-r:"D:/unity hub/2021.3.7f1/Editor/Data/Managed/UnityEngine/UnityEngine.CrashReportingModule.dll"
-r:"D:/unity hub/2021.3.7f1/Editor/Data/Managed/UnityEngine/UnityEngine.DirectorModule.dll"
-r:"D:/unity hub/2021.3.7f1/Editor/Data/Managed/UnityEngine/UnityEngine.dll"
-r:"D:/unity hub/2021.3.7f1/Editor/Data/Managed/UnityEngine/UnityEngine.DSPGraphModule.dll"
-r:"D:/unity hub/2021.3.7f1/Editor/Data/Managed/UnityEngine/UnityEngine.GameCenterModule.dll"
-r:"D:/unity hub/2021.3.7f1/Editor/Data/Managed/UnityEngine/UnityEngine.GIModule.dll"
-r:"D:/unity hub/2021.3.7f1/Editor/Data/Managed/UnityEngine/UnityEngine.GridModule.dll"
-r:"D:/unity hub/2021.3.7f1/Editor/Data/Managed/UnityEngine/UnityEngine.HotReloadModule.dll"
-r:"D:/unity hub/2021.3.7f1/Editor/Data/Managed/UnityEngine/UnityEngine.ImageConversionModule.dll"
-r:"D:/unity hub/2021.3.7f1/Editor/Data/Managed/UnityEngine/UnityEngine.IMGUIModule.dll"
-r:"D:/unity hub/2021.3.7f1/Editor/Data/Managed/UnityEngine/UnityEngine.InputLegacyModule.dll"
-r:"D:/unity hub/2021.3.7f1/Editor/Data/Managed/UnityEngine/UnityEngine.InputModule.dll"
-r:"D:/unity hub/2021.3.7f1/Editor/Data/Managed/UnityEngine/UnityEngine.JSONSerializeModule.dll"
-r:"D:/unity hub/2021.3.7f1/Editor/Data/Managed/UnityEngine/UnityEngine.LocalizationModule.dll"
-r:"D:/unity hub/2021.3.7f1/Editor/Data/Managed/UnityEngine/UnityEngine.ParticleSystemModule.dll"
-r:"D:/unity hub/2021.3.7f1/Editor/Data/Managed/UnityEngine/UnityEngine.PerformanceReportingModule.dll"
-r:"D:/unity hub/2021.3.7f1/Editor/Data/Managed/UnityEngine/UnityEngine.Physics2DModule.dll"
-r:"D:/unity hub/2021.3.7f1/Editor/Data/Managed/UnityEngine/UnityEngine.PhysicsModule.dll"
-r:"D:/unity hub/2021.3.7f1/Editor/Data/Managed/UnityEngine/UnityEngine.ProfilerModule.dll"
-r:"D:/unity hub/2021.3.7f1/Editor/Data/Managed/UnityEngine/UnityEngine.RuntimeInitializeOnLoadManagerInitializerModule.dll"
-r:"D:/unity hub/2021.3.7f1/Editor/Data/Managed/UnityEngine/UnityEngine.ScreenCaptureModule.dll"
-r:"D:/unity hub/2021.3.7f1/Editor/Data/Managed/UnityEngine/UnityEngine.SharedInternalsModule.dll"
-r:"D:/unity hub/2021.3.7f1/Editor/Data/Managed/UnityEngine/UnityEngine.SpriteMaskModule.dll"
-r:"D:/unity hub/2021.3.7f1/Editor/Data/Managed/UnityEngine/UnityEngine.SpriteShapeModule.dll"
-r:"D:/unity hub/2021.3.7f1/Editor/Data/Managed/UnityEngine/UnityEngine.StreamingModule.dll"
-r:"D:/unity hub/2021.3.7f1/Editor/Data/Managed/UnityEngine/UnityEngine.SubstanceModule.dll"
-r:"D:/unity hub/2021.3.7f1/Editor/Data/Managed/UnityEngine/UnityEngine.SubsystemsModule.dll"
-r:"D:/unity hub/2021.3.7f1/Editor/Data/Managed/UnityEngine/UnityEngine.TerrainModule.dll"
-r:"D:/unity hub/2021.3.7f1/Editor/Data/Managed/UnityEngine/UnityEngine.TerrainPhysicsModule.dll"
-r:"D:/unity hub/2021.3.7f1/Editor/Data/Managed/UnityEngine/UnityEngine.TextCoreFontEngineModule.dll"
-r:"D:/unity hub/2021.3.7f1/Editor/Data/Managed/UnityEngine/UnityEngine.TextCoreTextEngineModule.dll"
-r:"D:/unity hub/2021.3.7f1/Editor/Data/Managed/UnityEngine/UnityEngine.TextRenderingModule.dll"
-r:"D:/unity hub/2021.3.7f1/Editor/Data/Managed/UnityEngine/UnityEngine.TilemapModule.dll"
-r:"D:/unity hub/2021.3.7f1/Editor/Data/Managed/UnityEngine/UnityEngine.TLSModule.dll"
-r:"D:/unity hub/2021.3.7f1/Editor/Data/Managed/UnityEngine/UnityEngine.UIElementsModule.dll"
-r:"D:/unity hub/2021.3.7f1/Editor/Data/Managed/UnityEngine/UnityEngine.UIElementsNativeModule.dll"
-r:"D:/unity hub/2021.3.7f1/Editor/Data/Managed/UnityEngine/UnityEngine.UIModule.dll"
-r:"D:/unity hub/2021.3.7f1/Editor/Data/Managed/UnityEngine/UnityEngine.UmbraModule.dll"
-r:"D:/unity hub/2021.3.7f1/Editor/Data/Managed/UnityEngine/UnityEngine.UNETModule.dll"
-r:"D:/unity hub/2021.3.7f1/Editor/Data/Managed/UnityEngine/UnityEngine.UnityAnalyticsModule.dll"
-r:"D:/unity hub/2021.3.7f1/Editor/Data/Managed/UnityEngine/UnityEngine.UnityConnectModule.dll"
-r:"D:/unity hub/2021.3.7f1/Editor/Data/Managed/UnityEngine/UnityEngine.UnityCurlModule.dll"
-r:"D:/unity hub/2021.3.7f1/Editor/Data/Managed/UnityEngine/UnityEngine.UnityTestProtocolModule.dll"
-r:"D:/unity hub/2021.3.7f1/Editor/Data/Managed/UnityEngine/UnityEngine.UnityWebRequestAssetBundleModule.dll"
-r:"D:/unity hub/2021.3.7f1/Editor/Data/Managed/UnityEngine/UnityEngine.UnityWebRequestAudioModule.dll"
-r:"D:/unity hub/2021.3.7f1/Editor/Data/Managed/UnityEngine/UnityEngine.UnityWebRequestModule.dll"
-r:"D:/unity hub/2021.3.7f1/Editor/Data/Managed/UnityEngine/UnityEngine.UnityWebRequestTextureModule.dll"
-r:"D:/unity hub/2021.3.7f1/Editor/Data/Managed/UnityEngine/UnityEngine.UnityWebRequestWWWModule.dll"
-r:"D:/unity hub/2021.3.7f1/Editor/Data/Managed/UnityEngine/UnityEngine.VehiclesModule.dll"
-r:"D:/unity hub/2021.3.7f1/Editor/Data/Managed/UnityEngine/UnityEngine.VFXModule.dll"
-r:"D:/unity hub/2021.3.7f1/Editor/Data/Managed/UnityEngine/UnityEngine.VideoModule.dll"
-r:"D:/unity hub/2021.3.7f1/Editor/Data/Managed/UnityEngine/UnityEngine.VirtualTexturingModule.dll"
-r:"D:/unity hub/2021.3.7f1/Editor/Data/Managed/UnityEngine/UnityEngine.VRModule.dll"
-r:"D:/unity hub/2021.3.7f1/Editor/Data/Managed/UnityEngine/UnityEngine.WindModule.dll"
-r:"D:/unity hub/2021.3.7f1/Editor/Data/Managed/UnityEngine/UnityEngine.XRModule.dll"
-r:"D:/unity hub/2021.3.7f1/Editor/Data/NetStandard/compat/2.1.0/shims/netfx/mscorlib.dll"
-r:"D:/unity hub/2021.3.7f1/Editor/Data/NetStandard/compat/2.1.0/shims/netfx/System.ComponentModel.Composition.dll"
-r:"D:/unity hub/2021.3.7f1/Editor/Data/NetStandard/compat/2.1.0/shims/netfx/System.Core.dll"
-r:"D:/unity hub/2021.3.7f1/Editor/Data/NetStandard/compat/2.1.0/shims/netfx/System.Data.dll"
-r:"D:/unity hub/2021.3.7f1/Editor/Data/NetStandard/compat/2.1.0/shims/netfx/System.dll"
-r:"D:/unity hub/2021.3.7f1/Editor/Data/NetStandard/compat/2.1.0/shims/netfx/System.Drawing.dll"
-r:"D:/unity hub/2021.3.7f1/Editor/Data/NetStandard/compat/2.1.0/shims/netfx/System.IO.Compression.FileSystem.dll"
-r:"D:/unity hub/2021.3.7f1/Editor/Data/NetStandard/compat/2.1.0/shims/netfx/System.Net.dll"
-r:"D:/unity hub/2021.3.7f1/Editor/Data/NetStandard/compat/2.1.0/shims/netfx/System.Numerics.dll"
-r:"D:/unity hub/2021.3.7f1/Editor/Data/NetStandard/compat/2.1.0/shims/netfx/System.Runtime.Serialization.dll"
-r:"D:/unity hub/2021.3.7f1/Editor/Data/NetStandard/compat/2.1.0/shims/netfx/System.ServiceModel.Web.dll"
-r:"D:/unity hub/2021.3.7f1/Editor/Data/NetStandard/compat/2.1.0/shims/netfx/System.Transactions.dll"
-r:"D:/unity hub/2021.3.7f1/Editor/Data/NetStandard/compat/2.1.0/shims/netfx/System.Web.dll"
-r:"D:/unity hub/2021.3.7f1/Editor/Data/NetStandard/compat/2.1.0/shims/netfx/System.Windows.dll"
-r:"D:/unity hub/2021.3.7f1/Editor/Data/NetStandard/compat/2.1.0/shims/netfx/System.Xml.dll"
-r:"D:/unity hub/2021.3.7f1/Editor/Data/NetStandard/compat/2.1.0/shims/netfx/System.Xml.Linq.dll"
-r:"D:/unity hub/2021.3.7f1/Editor/Data/NetStandard/compat/2.1.0/shims/netfx/System.Xml.Serialization.dll"
-r:"D:/unity hub/2021.3.7f1/Editor/Data/NetStandard/compat/2.1.0/shims/netstandard/Microsoft.Win32.Primitives.dll"
-r:"D:/unity hub/2021.3.7f1/Editor/Data/NetStandard/compat/2.1.0/shims/netstandard/System.AppContext.dll"
-r:"D:/unity hub/2021.3.7f1/Editor/Data/NetStandard/compat/2.1.0/shims/netstandard/System.Buffers.dll"
-r:"D:/unity hub/2021.3.7f1/Editor/Data/NetStandard/compat/2.1.0/shims/netstandard/System.Collections.Concurrent.dll"
-r:"D:/unity hub/2021.3.7f1/Editor/Data/NetStandard/compat/2.1.0/shims/netstandard/System.Collections.dll"
-r:"D:/unity hub/2021.3.7f1/Editor/Data/NetStandard/compat/2.1.0/shims/netstandard/System.Collections.NonGeneric.dll"
-r:"D:/unity hub/2021.3.7f1/Editor/Data/NetStandard/compat/2.1.0/shims/netstandard/System.Collections.Specialized.dll"
-r:"D:/unity hub/2021.3.7f1/Editor/Data/NetStandard/compat/2.1.0/shims/netstandard/System.ComponentModel.dll"
-r:"D:/unity hub/2021.3.7f1/Editor/Data/NetStandard/compat/2.1.0/shims/netstandard/System.ComponentModel.EventBasedAsync.dll"
-r:"D:/unity hub/2021.3.7f1/Editor/Data/NetStandard/compat/2.1.0/shims/netstandard/System.ComponentModel.Primitives.dll"
-r:"D:/unity hub/2021.3.7f1/Editor/Data/NetStandard/compat/2.1.0/shims/netstandard/System.ComponentModel.TypeConverter.dll"
-r:"D:/unity hub/2021.3.7f1/Editor/Data/NetStandard/compat/2.1.0/shims/netstandard/System.Console.dll"
-r:"D:/unity hub/2021.3.7f1/Editor/Data/NetStandard/compat/2.1.0/shims/netstandard/System.Data.Common.dll"
-r:"D:/unity hub/2021.3.7f1/Editor/Data/NetStandard/compat/2.1.0/shims/netstandard/System.Diagnostics.Contracts.dll"
-r:"D:/unity hub/2021.3.7f1/Editor/Data/NetStandard/compat/2.1.0/shims/netstandard/System.Diagnostics.Debug.dll"
-r:"D:/unity hub/2021.3.7f1/Editor/Data/NetStandard/compat/2.1.0/shims/netstandard/System.Diagnostics.FileVersionInfo.dll"
-r:"D:/unity hub/2021.3.7f1/Editor/Data/NetStandard/compat/2.1.0/shims/netstandard/System.Diagnostics.Process.dll"
-r:"D:/unity hub/2021.3.7f1/Editor/Data/NetStandard/compat/2.1.0/shims/netstandard/System.Diagnostics.StackTrace.dll"
-r:"D:/unity hub/2021.3.7f1/Editor/Data/NetStandard/compat/2.1.0/shims/netstandard/System.Diagnostics.TextWriterTraceListener.dll"
-r:"D:/unity hub/2021.3.7f1/Editor/Data/NetStandard/compat/2.1.0/shims/netstandard/System.Diagnostics.Tools.dll"
-r:"D:/unity hub/2021.3.7f1/Editor/Data/NetStandard/compat/2.1.0/shims/netstandard/System.Diagnostics.TraceSource.dll"
-r:"D:/unity hub/2021.3.7f1/Editor/Data/NetStandard/compat/2.1.0/shims/netstandard/System.Diagnostics.Tracing.dll"
-r:"D:/unity hub/2021.3.7f1/Editor/Data/NetStandard/compat/2.1.0/shims/netstandard/System.Drawing.Primitives.dll"
-r:"D:/unity hub/2021.3.7f1/Editor/Data/NetStandard/compat/2.1.0/shims/netstandard/System.Dynamic.Runtime.dll"
-r:"D:/unity hub/2021.3.7f1/Editor/Data/NetStandard/compat/2.1.0/shims/netstandard/System.Globalization.Calendars.dll"
-r:"D:/unity hub/2021.3.7f1/Editor/Data/NetStandard/compat/2.1.0/shims/netstandard/System.Globalization.dll"
-r:"D:/unity hub/2021.3.7f1/Editor/Data/NetStandard/compat/2.1.0/shims/netstandard/System.Globalization.Extensions.dll"
-r:"D:/unity hub/2021.3.7f1/Editor/Data/NetStandard/compat/2.1.0/shims/netstandard/System.IO.Compression.dll"
-r:"D:/unity hub/2021.3.7f1/Editor/Data/NetStandard/compat/2.1.0/shims/netstandard/System.IO.Compression.ZipFile.dll"
-r:"D:/unity hub/2021.3.7f1/Editor/Data/NetStandard/compat/2.1.0/shims/netstandard/System.IO.dll"
-r:"D:/unity hub/2021.3.7f1/Editor/Data/NetStandard/compat/2.1.0/shims/netstandard/System.IO.FileSystem.dll"
-r:"D:/unity hub/2021.3.7f1/Editor/Data/NetStandard/compat/2.1.0/shims/netstandard/System.IO.FileSystem.DriveInfo.dll"
-r:"D:/unity hub/2021.3.7f1/Editor/Data/NetStandard/compat/2.1.0/shims/netstandard/System.IO.FileSystem.Primitives.dll"
-r:"D:/unity hub/2021.3.7f1/Editor/Data/NetStandard/compat/2.1.0/shims/netstandard/System.IO.FileSystem.Watcher.dll"
-r:"D:/unity hub/2021.3.7f1/Editor/Data/NetStandard/compat/2.1.0/shims/netstandard/System.IO.IsolatedStorage.dll"
-r:"D:/unity hub/2021.3.7f1/Editor/Data/NetStandard/compat/2.1.0/shims/netstandard/System.IO.MemoryMappedFiles.dll"
-r:"D:/unity hub/2021.3.7f1/Editor/Data/NetStandard/compat/2.1.0/shims/netstandard/System.IO.Pipes.dll"
-r:"D:/unity hub/2021.3.7f1/Editor/Data/NetStandard/compat/2.1.0/shims/netstandard/System.IO.UnmanagedMemoryStream.dll"
-r:"D:/unity hub/2021.3.7f1/Editor/Data/NetStandard/compat/2.1.0/shims/netstandard/System.Linq.dll"
-r:"D:/unity hub/2021.3.7f1/Editor/Data/NetStandard/compat/2.1.0/shims/netstandard/System.Linq.Expressions.dll"
-r:"D:/unity hub/2021.3.7f1/Editor/Data/NetStandard/compat/2.1.0/shims/netstandard/System.Linq.Parallel.dll"
-r:"D:/unity hub/2021.3.7f1/Editor/Data/NetStandard/compat/2.1.0/shims/netstandard/System.Linq.Queryable.dll"
-r:"D:/unity hub/2021.3.7f1/Editor/Data/NetStandard/compat/2.1.0/shims/netstandard/System.Memory.dll"
-r:"D:/unity hub/2021.3.7f1/Editor/Data/NetStandard/compat/2.1.0/shims/netstandard/System.Net.Http.dll"
-r:"D:/unity hub/2021.3.7f1/Editor/Data/NetStandard/compat/2.1.0/shims/netstandard/System.Net.NameResolution.dll"
-r:"D:/unity hub/2021.3.7f1/Editor/Data/NetStandard/compat/2.1.0/shims/netstandard/System.Net.NetworkInformation.dll"
-r:"D:/unity hub/2021.3.7f1/Editor/Data/NetStandard/compat/2.1.0/shims/netstandard/System.Net.Ping.dll"
-r:"D:/unity hub/2021.3.7f1/Editor/Data/NetStandard/compat/2.1.0/shims/netstandard/System.Net.Primitives.dll"
-r:"D:/unity hub/2021.3.7f1/Editor/Data/NetStandard/compat/2.1.0/shims/netstandard/System.Net.Requests.dll"
-r:"D:/unity hub/2021.3.7f1/Editor/Data/NetStandard/compat/2.1.0/shims/netstandard/System.Net.Security.dll"
-r:"D:/unity hub/2021.3.7f1/Editor/Data/NetStandard/compat/2.1.0/shims/netstandard/System.Net.Sockets.dll"
-r:"D:/unity hub/2021.3.7f1/Editor/Data/NetStandard/compat/2.1.0/shims/netstandard/System.Net.WebHeaderCollection.dll"
-r:"D:/unity hub/2021.3.7f1/Editor/Data/NetStandard/compat/2.1.0/shims/netstandard/System.Net.WebSockets.Client.dll"
-r:"D:/unity hub/2021.3.7f1/Editor/Data/NetStandard/compat/2.1.0/shims/netstandard/System.Net.WebSockets.dll"
-r:"D:/unity hub/2021.3.7f1/Editor/Data/NetStandard/compat/2.1.0/shims/netstandard/System.Numerics.Vectors.dll"
-r:"D:/unity hub/2021.3.7f1/Editor/Data/NetStandard/compat/2.1.0/shims/netstandard/System.ObjectModel.dll"
-r:"D:/unity hub/2021.3.7f1/Editor/Data/NetStandard/compat/2.1.0/shims/netstandard/System.Reflection.DispatchProxy.dll"
-r:"D:/unity hub/2021.3.7f1/Editor/Data/NetStandard/compat/2.1.0/shims/netstandard/System.Reflection.dll"
-r:"D:/unity hub/2021.3.7f1/Editor/Data/NetStandard/compat/2.1.0/shims/netstandard/System.Reflection.Emit.dll"
-r:"D:/unity hub/2021.3.7f1/Editor/Data/NetStandard/compat/2.1.0/shims/netstandard/System.Reflection.Emit.ILGeneration.dll"
-r:"D:/unity hub/2021.3.7f1/Editor/Data/NetStandard/compat/2.1.0/shims/netstandard/System.Reflection.Emit.Lightweight.dll"
-r:"D:/unity hub/2021.3.7f1/Editor/Data/NetStandard/compat/2.1.0/shims/netstandard/System.Reflection.Extensions.dll"
-r:"D:/unity hub/2021.3.7f1/Editor/Data/NetStandard/compat/2.1.0/shims/netstandard/System.Reflection.Primitives.dll"
-r:"D:/unity hub/2021.3.7f1/Editor/Data/NetStandard/compat/2.1.0/shims/netstandard/System.Resources.Reader.dll"
-r:"D:/unity hub/2021.3.7f1/Editor/Data/NetStandard/compat/2.1.0/shims/netstandard/System.Resources.ResourceManager.dll"
-r:"D:/unity hub/2021.3.7f1/Editor/Data/NetStandard/compat/2.1.0/shims/netstandard/System.Resources.Writer.dll"
-r:"D:/unity hub/2021.3.7f1/Editor/Data/NetStandard/compat/2.1.0/shims/netstandard/System.Runtime.CompilerServices.VisualC.dll"
-r:"D:/unity hub/2021.3.7f1/Editor/Data/NetStandard/compat/2.1.0/shims/netstandard/System.Runtime.dll"
-r:"D:/unity hub/2021.3.7f1/Editor/Data/NetStandard/compat/2.1.0/shims/netstandard/System.Runtime.Extensions.dll"
-r:"D:/unity hub/2021.3.7f1/Editor/Data/NetStandard/compat/2.1.0/shims/netstandard/System.Runtime.Handles.dll"
-r:"D:/unity hub/2021.3.7f1/Editor/Data/NetStandard/compat/2.1.0/shims/netstandard/System.Runtime.InteropServices.dll"
-r:"D:/unity hub/2021.3.7f1/Editor/Data/NetStandard/compat/2.1.0/shims/netstandard/System.Runtime.InteropServices.RuntimeInformation.dll"
-r:"D:/unity hub/2021.3.7f1/Editor/Data/NetStandard/compat/2.1.0/shims/netstandard/System.Runtime.Numerics.dll"
-r:"D:/unity hub/2021.3.7f1/Editor/Data/NetStandard/compat/2.1.0/shims/netstandard/System.Runtime.Serialization.Formatters.dll"
-r:"D:/unity hub/2021.3.7f1/Editor/Data/NetStandard/compat/2.1.0/shims/netstandard/System.Runtime.Serialization.Json.dll"
-r:"D:/unity hub/2021.3.7f1/Editor/Data/NetStandard/compat/2.1.0/shims/netstandard/System.Runtime.Serialization.Primitives.dll"
-r:"D:/unity hub/2021.3.7f1/Editor/Data/NetStandard/compat/2.1.0/shims/netstandard/System.Runtime.Serialization.Xml.dll"
-r:"D:/unity hub/2021.3.7f1/Editor/Data/NetStandard/compat/2.1.0/shims/netstandard/System.Security.Claims.dll"
-r:"D:/unity hub/2021.3.7f1/Editor/Data/NetStandard/compat/2.1.0/shims/netstandard/System.Security.Cryptography.Algorithms.dll"
-r:"D:/unity hub/2021.3.7f1/Editor/Data/NetStandard/compat/2.1.0/shims/netstandard/System.Security.Cryptography.Csp.dll"
-r:"D:/unity hub/2021.3.7f1/Editor/Data/NetStandard/compat/2.1.0/shims/netstandard/System.Security.Cryptography.Encoding.dll"
-r:"D:/unity hub/2021.3.7f1/Editor/Data/NetStandard/compat/2.1.0/shims/netstandard/System.Security.Cryptography.Primitives.dll"
-r:"D:/unity hub/2021.3.7f1/Editor/Data/NetStandard/compat/2.1.0/shims/netstandard/System.Security.Cryptography.X509Certificates.dll"
-r:"D:/unity hub/2021.3.7f1/Editor/Data/NetStandard/compat/2.1.0/shims/netstandard/System.Security.Principal.dll"
-r:"D:/unity hub/2021.3.7f1/Editor/Data/NetStandard/compat/2.1.0/shims/netstandard/System.Security.SecureString.dll"
-r:"D:/unity hub/2021.3.7f1/Editor/Data/NetStandard/compat/2.1.0/shims/netstandard/System.Text.Encoding.dll"
-r:"D:/unity hub/2021.3.7f1/Editor/Data/NetStandard/compat/2.1.0/shims/netstandard/System.Text.Encoding.Extensions.dll"
-r:"D:/unity hub/2021.3.7f1/Editor/Data/NetStandard/compat/2.1.0/shims/netstandard/System.Text.RegularExpressions.dll"
-r:"D:/unity hub/2021.3.7f1/Editor/Data/NetStandard/compat/2.1.0/shims/netstandard/System.Threading.dll"
-r:"D:/unity hub/2021.3.7f1/Editor/Data/NetStandard/compat/2.1.0/shims/netstandard/System.Threading.Overlapped.dll"
-r:"D:/unity hub/2021.3.7f1/Editor/Data/NetStandard/compat/2.1.0/shims/netstandard/System.Threading.Tasks.dll"
-r:"D:/unity hub/2021.3.7f1/Editor/Data/NetStandard/compat/2.1.0/shims/netstandard/System.Threading.Tasks.Extensions.dll"
-r:"D:/unity hub/2021.3.7f1/Editor/Data/NetStandard/compat/2.1.0/shims/netstandard/System.Threading.Tasks.Parallel.dll"
-r:"D:/unity hub/2021.3.7f1/Editor/Data/NetStandard/compat/2.1.0/shims/netstandard/System.Threading.Thread.dll"
-r:"D:/unity hub/2021.3.7f1/Editor/Data/NetStandard/compat/2.1.0/shims/netstandard/System.Threading.ThreadPool.dll"
-r:"D:/unity hub/2021.3.7f1/Editor/Data/NetStandard/compat/2.1.0/shims/netstandard/System.Threading.Timer.dll"
-r:"D:/unity hub/2021.3.7f1/Editor/Data/NetStandard/compat/2.1.0/shims/netstandard/System.ValueTuple.dll"
-r:"D:/unity hub/2021.3.7f1/Editor/Data/NetStandard/compat/2.1.0/shims/netstandard/System.Xml.ReaderWriter.dll"
-r:"D:/unity hub/2021.3.7f1/Editor/Data/NetStandard/compat/2.1.0/shims/netstandard/System.Xml.XDocument.dll"
-r:"D:/unity hub/2021.3.7f1/Editor/Data/NetStandard/compat/2.1.0/shims/netstandard/System.Xml.XmlDocument.dll"
-r:"D:/unity hub/2021.3.7f1/Editor/Data/NetStandard/compat/2.1.0/shims/netstandard/System.Xml.XmlSerializer.dll"
-r:"D:/unity hub/2021.3.7f1/Editor/Data/NetStandard/compat/2.1.0/shims/netstandard/System.Xml.XPath.dll"
-r:"D:/unity hub/2021.3.7f1/Editor/Data/NetStandard/compat/2.1.0/shims/netstandard/System.Xml.XPath.XDocument.dll"
-r:"D:/unity hub/2021.3.7f1/Editor/Data/NetStandard/Extensions/2.0.0/System.Runtime.InteropServices.WindowsRuntime.dll"
-r:"D:/unity hub/2021.3.7f1/Editor/Data/NetStandard/ref/2.1.0/netstandard.dll"
-r:"Library/Bee/artifacts/1900b0aE.dag/Assembly-CSharp-firstpass.ref.dll"
-r:"Library/Bee/artifacts/1900b0aE.dag/Fungus.FungusLuaEditor.ref.dll"
-r:"Library/Bee/artifacts/1900b0aE.dag/Fungus.FungusLuaJSONCheckerEditor.ref.dll"
-r:"Library/Bee/artifacts/1900b0aE.dag/Fungus.LineEndingsEditor.ref.dll"
-r:"Library/Bee/artifacts/1900b0aE.dag/Fungus.ref.dll"
-r:"Library/Bee/artifacts/1900b0aE.dag/Fungus.UsfxrEditor.ref.dll"
-r:"Library/Bee/artifacts/1900b0aE.dag/FungusEditor.ref.dll"
-r:"Library/Bee/artifacts/1900b0aE.dag/FungusExamples.ref.dll"
-r:"Library/Bee/artifacts/1900b0aE.dag/PsdPlugin.ref.dll"
-r:"Library/Bee/artifacts/1900b0aE.dag/Unity.2D.Animation.Editor.ref.dll"
-r:"Library/Bee/artifacts/1900b0aE.dag/Unity.2D.Animation.Runtime.ref.dll"
-r:"Library/Bee/artifacts/1900b0aE.dag/Unity.2D.Common.Editor.ref.dll"
-r:"Library/Bee/artifacts/1900b0aE.dag/Unity.2D.Common.Runtime.ref.dll"
-r:"Library/Bee/artifacts/1900b0aE.dag/Unity.2D.IK.Editor.ref.dll"
-r:"Library/Bee/artifacts/1900b0aE.dag/Unity.2D.IK.Runtime.ref.dll"
-r:"Library/Bee/artifacts/1900b0aE.dag/Unity.2D.Path.Editor.ref.dll"
-r:"Library/Bee/artifacts/1900b0aE.dag/Unity.2D.PixelPerfect.Editor.ref.dll"
-r:"Library/Bee/artifacts/1900b0aE.dag/Unity.2D.PixelPerfect.ref.dll"
-r:"Library/Bee/artifacts/1900b0aE.dag/Unity.2D.Psdimporter.Editor.ref.dll"
-r:"Library/Bee/artifacts/1900b0aE.dag/Unity.2D.Sprite.Editor.ref.dll"
-r:"Library/Bee/artifacts/1900b0aE.dag/Unity.2D.SpriteShape.Editor.ref.dll"
-r:"Library/Bee/artifacts/1900b0aE.dag/Unity.2D.SpriteShape.Runtime.ref.dll"
-r:"Library/Bee/artifacts/1900b0aE.dag/Unity.2D.Tilemap.Editor.ref.dll"
-r:"Library/Bee/artifacts/1900b0aE.dag/Unity.2D.Tilemap.Extras.Editor.ref.dll"
-r:"Library/Bee/artifacts/1900b0aE.dag/Unity.2D.Tilemap.Extras.ref.dll"
-r:"Library/Bee/artifacts/1900b0aE.dag/Unity.Burst.Editor.ref.dll"
-r:"Library/Bee/artifacts/1900b0aE.dag/Unity.Burst.ref.dll"
-r:"Library/Bee/artifacts/1900b0aE.dag/Unity.InputSystem.ref.dll"
-r:"Library/Bee/artifacts/1900b0aE.dag/Unity.InternalAPIEditorBridge.001.ref.dll"
-r:"Library/Bee/artifacts/1900b0aE.dag/Unity.InternalAPIEngineBridge.001.ref.dll"
-r:"Library/Bee/artifacts/1900b0aE.dag/Unity.Mathematics.Editor.ref.dll"
-r:"Library/Bee/artifacts/1900b0aE.dag/Unity.Mathematics.ref.dll"
-r:"Library/Bee/artifacts/1900b0aE.dag/Unity.PlasticSCM.Editor.ref.dll"
-r:"Library/Bee/artifacts/1900b0aE.dag/Unity.Rider.Editor.ref.dll"
-r:"Library/Bee/artifacts/1900b0aE.dag/Unity.Services.Core.Analytics.ref.dll"
-r:"Library/Bee/artifacts/1900b0aE.dag/Unity.Services.Core.Environments.ref.dll"
-r:"Library/Bee/artifacts/1900b0aE.dag/Unity.Services.Core.ref.dll"
-r:"Library/Bee/artifacts/1900b0aE.dag/Unity.TextMeshPro.Editor.ref.dll"
-r:"Library/Bee/artifacts/1900b0aE.dag/Unity.TextMeshPro.ref.dll"
-r:"Library/Bee/artifacts/1900b0aE.dag/Unity.Timeline.Editor.ref.dll"
-r:"Library/Bee/artifacts/1900b0aE.dag/Unity.Timeline.ref.dll"
-r:"Library/Bee/artifacts/1900b0aE.dag/Unity.VisualScripting.Core.Editor.ref.dll"
-r:"Library/Bee/artifacts/1900b0aE.dag/Unity.VisualScripting.Core.ref.dll"
-r:"Library/Bee/artifacts/1900b0aE.dag/Unity.VisualScripting.Flow.Editor.ref.dll"
-r:"Library/Bee/artifacts/1900b0aE.dag/Unity.VisualScripting.Flow.ref.dll"
-r:"Library/Bee/artifacts/1900b0aE.dag/Unity.VisualScripting.SettingsProvider.Editor.ref.dll"
-r:"Library/Bee/artifacts/1900b0aE.dag/Unity.VisualScripting.Shared.Editor.ref.dll"
-r:"Library/Bee/artifacts/1900b0aE.dag/Unity.VisualScripting.State.Editor.ref.dll"
-r:"Library/Bee/artifacts/1900b0aE.dag/Unity.VisualScripting.State.ref.dll"
-r:"Library/Bee/artifacts/1900b0aE.dag/Unity.VisualStudio.Editor.ref.dll"
-r:"Library/Bee/artifacts/1900b0aE.dag/Unity.VSCode.Editor.ref.dll"
-r:"Library/Bee/artifacts/1900b0aE.dag/UnityEditor.UI.ref.dll"
-r:"Library/Bee/artifacts/1900b0aE.dag/UnityEngine.UI.ref.dll"
"Assets/D.A. Assets/Figma Converter for Unity/Examples/Scripts/NeoCircleBar.cs"
"Assets/D.A. Assets/Figma Converter for Unity/Scripts/CanvasDrawer.cs"
"Assets/D.A. Assets/Figma Converter for Unity/Scripts/Checkers.cs"
"Assets/D.A. Assets/Figma Converter for Unity/Scripts/Config/Constants.cs"
"Assets/D.A. Assets/Figma Converter for Unity/Scripts/Config/DefaultSettings.cs"
"Assets/D.A. Assets/Figma Converter for Unity/Scripts/Config/ImportConditions.cs"
"Assets/D.A. Assets/Figma Converter for Unity/Scripts/Config/Localization.cs"
"Assets/D.A. Assets/Figma Converter for Unity/Scripts/Console.cs"
"Assets/D.A. Assets/Figma Converter for Unity/Scripts/Exceptions/FigmaException.cs"
"Assets/D.A. Assets/Figma Converter for Unity/Scripts/Exceptions/InvalidApiKeyException.cs"
"Assets/D.A. Assets/Figma Converter for Unity/Scripts/Exceptions/InvalidAuthException.cs"
"Assets/D.A. Assets/Figma Converter for Unity/Scripts/Exceptions/InvalidSettingsException.cs"
"Assets/D.A. Assets/Figma Converter for Unity/Scripts/Exceptions/MissingAssetException.cs"
"Assets/D.A. Assets/Figma Converter for Unity/Scripts/Exceptions/MissingSpriteException.cs"
"Assets/D.A. Assets/Figma Converter for Unity/Scripts/Exceptions/NoSelectedPageException.cs"
"Assets/D.A. Assets/Figma Converter for Unity/Scripts/Exceptions/PositioningException.cs"
"Assets/D.A. Assets/Figma Converter for Unity/Scripts/Extensions/Adaptivity.cs"
"Assets/D.A. Assets/Figma Converter for Unity/Scripts/Extensions/CodeHelpers.cs"
"Assets/D.A. Assets/Figma Converter for Unity/Scripts/Extensions/FigmaExtensions.cs"
"Assets/D.A. Assets/Figma Converter for Unity/Scripts/Extensions/Levenshtein.cs"
"Assets/D.A. Assets/Figma Converter for Unity/Scripts/FCU_Prefs.cs"
"Assets/D.A. Assets/Figma Converter for Unity/Scripts/FigmaConverterUnity.cs"
"Assets/D.A. Assets/Figma Converter for Unity/Scripts/FigmaParser.cs"
"Assets/D.A. Assets/Figma Converter for Unity/Scripts/HandleDefine.cs"
"Assets/D.A. Assets/Figma Converter for Unity/Scripts/Model/Enums.cs"
"Assets/D.A. Assets/Figma Converter for Unity/Scripts/Model/FigmaModel.cs"
"Assets/D.A. Assets/Figma Converter for Unity/Scripts/Model/ResizingType.cs"
"Assets/D.A. Assets/Figma Converter for Unity/Scripts/Model/Settings.cs"
"Assets/D.A. Assets/Figma Converter for Unity/Scripts/Plugins/I2LocalizationPlugin.cs"
"Assets/D.A. Assets/Figma Converter for Unity/Scripts/Plugins/MPImagePlugin.cs"
"Assets/D.A. Assets/Figma Converter for Unity/Scripts/Plugins/ProceduralImagePlugin.cs"
"Assets/D.A. Assets/Figma Converter for Unity/Scripts/Plugins/TrueShadowPlugin.cs"
"Assets/D.A. Assets/Figma Converter for Unity/Scripts/TextStyle.cs"
"Assets/D.A. Assets/Figma Converter for Unity/Scripts/UI/BetterButton.cs"
"Assets/Doozy/Runtime/Colors/ColorEvent.cs"
"Assets/Doozy/Runtime/Colors/ColorExtensions.cs"
"Assets/Doozy/Runtime/Colors/ColorUtils.cs"
"Assets/Doozy/Runtime/Colors/Models/HSL.cs"
"Assets/Doozy/Runtime/Colors/Models/HSV.cs"
"Assets/Doozy/Runtime/Colors/Models/RGB.cs"
"Assets/Doozy/Runtime/Colors/SelectableColor.cs"
"Assets/Doozy/Runtime/Colors/SelectableColorExtensions.cs"
"Assets/Doozy/Runtime/Colors/SelectionState.cs"
"Assets/Doozy/Runtime/Colors/ThemeColor.cs"
"Assets/Doozy/Runtime/Common/Attributes/ClearOnReloadAttribute.cs"
"Assets/Doozy/Runtime/Common/Attributes/ExecuteOnReloadAttribute.cs"
"Assets/Doozy/Runtime/Common/BasePathFinder.cs"
"Assets/Doozy/Runtime/Common/CategoryNameGroup.cs"
"Assets/Doozy/Runtime/Common/CategoryNameId.cs"
"Assets/Doozy/Runtime/Common/CategoryNameItem.cs"
"Assets/Doozy/Runtime/Common/Debugger.cs"
"Assets/Doozy/Runtime/Common/Enums/Timescale.cs"
"Assets/Doozy/Runtime/Common/Events/BoolEvent.cs"
"Assets/Doozy/Runtime/Common/Events/FloatEvent.cs"
"Assets/Doozy/Runtime/Common/Events/IntEvent.cs"
"Assets/Doozy/Runtime/Common/Events/QuaternionEvent.cs"
"Assets/Doozy/Runtime/Common/Events/ValueChangedEventBase.cs"
"Assets/Doozy/Runtime/Common/Events/Vector2Event.cs"
"Assets/Doozy/Runtime/Common/Events/Vector3Event.cs"
"Assets/Doozy/Runtime/Common/Extensions/DoubleExtensions.cs"
"Assets/Doozy/Runtime/Common/Extensions/EnumerableExtensions.cs"
"Assets/Doozy/Runtime/Common/Extensions/FloatExtensions.cs"
"Assets/Doozy/Runtime/Common/Extensions/GameObjectExtensions.cs"
"Assets/Doozy/Runtime/Common/Extensions/IntExtensions.cs"
"Assets/Doozy/Runtime/Common/Extensions/ListExtensions.cs"
"Assets/Doozy/Runtime/Common/Extensions/RectTransformExtensions.cs"
"Assets/Doozy/Runtime/Common/Extensions/StringExtensions.cs"
"Assets/Doozy/Runtime/Common/Extensions/TransformExtensions.cs"
"Assets/Doozy/Runtime/Common/Extensions/Vector2Extensions.cs"
"Assets/Doozy/Runtime/Common/Extensions/Vector3Extensions.cs"
"Assets/Doozy/Runtime/Common/Interfaces/IListDatabase.cs"
"Assets/Doozy/Runtime/Common/Interfaces/ILogger.cs"
"Assets/Doozy/Runtime/Common/ListDatabase.cs"
"Assets/Doozy/Runtime/Common/Models/SingletonBehaviour.cs"
"Assets/Doozy/Runtime/Common/PrefabLink.cs"
"Assets/Doozy/Runtime/Common/RandomFloat.cs"
"Assets/Doozy/Runtime/Common/RandomInt.cs"
"Assets/Doozy/Runtime/Common/ScriptableObjects/SingletonRuntimeScriptableObject.cs"
"Assets/Doozy/Runtime/Common/TestValues.cs"
"Assets/Doozy/Runtime/Common/Utils/ByteArraySerializer.cs"
"Assets/Doozy/Runtime/Common/Utils/GameObjectUtils.cs"
"Assets/Doozy/Runtime/Common/Utils/ObjectNames.cs"
"Assets/Doozy/Runtime/Common/Utils/PathUtils.cs"
"Assets/Doozy/Runtime/Common/Utils/ReflectionUtils.cs"
"Assets/Doozy/Runtime/Common/Utils/TypeUtis.cs"
"Assets/Doozy/Runtime/Common/Utils/UnityDebug.cs"
"Assets/Doozy/Runtime/Global/Coroutiner.cs"
"Assets/Doozy/Runtime/Mody/Actions/BoolModyAction.cs"
"Assets/Doozy/Runtime/Mody/Actions/Color32ModyAction.cs"
"Assets/Doozy/Runtime/Mody/Actions/ColorModyAction.cs"
"Assets/Doozy/Runtime/Mody/Actions/DoubleModyAction.cs"
"Assets/Doozy/Runtime/Mody/Actions/FloatModyAction.cs"
"Assets/Doozy/Runtime/Mody/Actions/GameObjectModyAction.cs"
"Assets/Doozy/Runtime/Mody/Actions/GenericModyAction.cs"
"Assets/Doozy/Runtime/Mody/Actions/IntModyAction.cs"
"Assets/Doozy/Runtime/Mody/Actions/LongModyAction.cs"
"Assets/Doozy/Runtime/Mody/Actions/MonoBehaviourModyAction.cs"
"Assets/Doozy/Runtime/Mody/Actions/ScriptableObjectModyAction.cs"
"Assets/Doozy/Runtime/Mody/Actions/SimpleModyAction.cs"
"Assets/Doozy/Runtime/Mody/Actions/SpriteModyAction.cs"
"Assets/Doozy/Runtime/Mody/Actions/StringModyAction.cs"
"Assets/Doozy/Runtime/Mody/Actions/Texture2DModyAction.cs"
"Assets/Doozy/Runtime/Mody/Actions/TextureModyAction.cs"
"Assets/Doozy/Runtime/Mody/Actions/Vector2ModyAction.cs"
"Assets/Doozy/Runtime/Mody/Actions/Vector3ModyAction.cs"
"Assets/Doozy/Runtime/Mody/Actions/Vector4ModyAction.cs"
"Assets/Doozy/Runtime/Mody/Enums/ActionState.cs"
"Assets/Doozy/Runtime/Mody/Enums/ModuleState.cs"
"Assets/Doozy/Runtime/Mody/Enums/ProviderState.cs"
"Assets/Doozy/Runtime/Mody/Enums/RunAction.cs"
"Assets/Doozy/Runtime/Mody/Interfaces/IHaveActions.cs"
"Assets/Doozy/Runtime/Mody/MetaModyAction.cs"
"Assets/Doozy/Runtime/Mody/ModyAction.cs"
"Assets/Doozy/Runtime/Mody/ModyActionRunner.cs"
"Assets/Doozy/Runtime/Mody/ModyEvent.cs"
"Assets/Doozy/Runtime/Mody/ModyEventBase.cs"
"Assets/Doozy/Runtime/Mody/ModyModule.cs"
"Assets/Doozy/Runtime/Nody/Enums/FlowDirection.cs"
"Assets/Doozy/Runtime/Nody/Enums/FlowType.cs"
"Assets/Doozy/Runtime/Nody/Enums/GraphState.cs"
"Assets/Doozy/Runtime/Nody/Enums/NodeState.cs"
"Assets/Doozy/Runtime/Nody/Enums/NodeType.cs"
"Assets/Doozy/Runtime/Nody/Enums/PortCapacity.cs"
"Assets/Doozy/Runtime/Nody/Enums/PortDirection.cs"
"Assets/Doozy/Runtime/Nody/Enums/SystemNodeType.cs"
"Assets/Doozy/Runtime/Nody/FlowController.cs"
"Assets/Doozy/Runtime/Nody/FlowGraph.cs"
"Assets/Doozy/Runtime/Nody/FlowNode.cs"
"Assets/Doozy/Runtime/Nody/FlowPort.cs"
"Assets/Doozy/Runtime/Nody/GraphStateEvent.cs"
"Assets/Doozy/Runtime/Nody/Nodes/ApplicationQuitNode.cs"
"Assets/Doozy/Runtime/Nody/Nodes/DebugNode.cs"
"Assets/Doozy/Runtime/Nody/Nodes/Internal/GlobalNode.cs"
"Assets/Doozy/Runtime/Nody/Nodes/Internal/SimpleNode.cs"
"Assets/Doozy/Runtime/Nody/Nodes/Internal/SystemNode.cs"
"Assets/Doozy/Runtime/Nody/Nodes/PivotNode.cs"
"Assets/Doozy/Runtime/Nody/Nodes/PortData/RandomNodeOutputPortData.cs"
"Assets/Doozy/Runtime/Nody/Nodes/RandomNode.cs"
"Assets/Doozy/Runtime/Nody/Nodes/StickyNoteNode.cs"
"Assets/Doozy/Runtime/Nody/Nodes/System/EnterNode.cs"
"Assets/Doozy/Runtime/Nody/Nodes/System/ExitNode.cs"
"Assets/Doozy/Runtime/Nody/Nodes/System/StartNode.cs"
"Assets/Doozy/Runtime/Nody/Nodes/TimeScaleNode.cs"
"Assets/Doozy/Runtime/Nody/NodyMenuPathAttribute.cs"
"Assets/Doozy/Runtime/Nody/NodyUtils.cs"
"Assets/Doozy/Runtime/Pooler/IPoolable.cs"
"Assets/Doozy/Runtime/Pooler/PoolService.cs"
"Assets/Doozy/Runtime/Reactor/Animations/ColorAnimation.cs"
"Assets/Doozy/Runtime/Reactor/Animations/FloatAnimation.cs"
"Assets/Doozy/Runtime/Reactor/Animations/IntAnimation.cs"
"Assets/Doozy/Runtime/Reactor/Animations/Internal/ReactorAnimation.cs"
"Assets/Doozy/Runtime/Reactor/Animations/Internal/UIAnimationSettings.cs"
"Assets/Doozy/Runtime/Reactor/Animations/SpriteAnimation.cs"
"Assets/Doozy/Runtime/Reactor/Animations/UIAnimation.cs"
"Assets/Doozy/Runtime/Reactor/Animations/Vector2Animation.cs"
"Assets/Doozy/Runtime/Reactor/Animations/Vector3Animation.cs"
"Assets/Doozy/Runtime/Reactor/Animators/ColorAnimator.cs"
"Assets/Doozy/Runtime/Reactor/Animators/FloatAnimator.cs"
"Assets/Doozy/Runtime/Reactor/Animators/IntAnimator.cs"
"Assets/Doozy/Runtime/Reactor/Animators/Internal/ReactorAnimator.cs"
"Assets/Doozy/Runtime/Reactor/Animators/Internal/ReflectedValueAnimator.cs"
"Assets/Doozy/Runtime/Reactor/Animators/SpriteAnimator.cs"
"Assets/Doozy/Runtime/Reactor/Animators/UIAnimator.cs"
"Assets/Doozy/Runtime/Reactor/Animators/Vector2Animator.cs"
"Assets/Doozy/Runtime/Reactor/Animators/Vector3Animator.cs"
"Assets/Doozy/Runtime/Reactor/Easings/Bezier.cs"
"Assets/Doozy/Runtime/Reactor/Easings/Ease.cs"
"Assets/Doozy/Runtime/Reactor/Easings/EaseFactory.cs"
"Assets/Doozy/Runtime/Reactor/Easings/EaseMode.cs"
"Assets/Doozy/Runtime/Reactor/Easings/Easer.cs"
"Assets/Doozy/Runtime/Reactor/Easings/Eases/BackEaseInEasing.cs"
"Assets/Doozy/Runtime/Reactor/Easings/Eases/BackEaseInOutEasing.cs"
"Assets/Doozy/Runtime/Reactor/Easings/Eases/BackEaseOutEasing.cs"
"Assets/Doozy/Runtime/Reactor/Easings/Eases/BounceEaseInEasing.cs"
"Assets/Doozy/Runtime/Reactor/Easings/Eases/BounceEaseInOutEasing.cs"
"Assets/Doozy/Runtime/Reactor/Easings/Eases/BounceEaseOutEasing.cs"
"Assets/Doozy/Runtime/Reactor/Easings/Eases/CircularEaseInEasing.cs"
"Assets/Doozy/Runtime/Reactor/Easings/Eases/CircularEaseInOutEasing.cs"
"Assets/Doozy/Runtime/Reactor/Easings/Eases/CircularEaseOutEasing.cs"
"Assets/Doozy/Runtime/Reactor/Easings/Eases/CubicEaseInEasing.cs"
"Assets/Doozy/Runtime/Reactor/Easings/Eases/CubicEaseInOutEasing.cs"
"Assets/Doozy/Runtime/Reactor/Easings/Eases/CubicEaseOutEasing.cs"
"Assets/Doozy/Runtime/Reactor/Easings/Eases/EasyEaseEasing.cs"
"Assets/Doozy/Runtime/Reactor/Easings/Eases/EasyEaseInEasing.cs"
"Assets/Doozy/Runtime/Reactor/Easings/Eases/EasyEaseInOutEasing.cs"
"Assets/Doozy/Runtime/Reactor/Easings/Eases/EasyEaseOutEasing.cs"
"Assets/Doozy/Runtime/Reactor/Easings/Eases/ElasticEaseInEasing.cs"
"Assets/Doozy/Runtime/Reactor/Easings/Eases/ElasticEaseInOutEasing.cs"
"Assets/Doozy/Runtime/Reactor/Easings/Eases/ElasticEaseOutEasing.cs"
"Assets/Doozy/Runtime/Reactor/Easings/Eases/ExponentialEaseInEasing.cs"
"Assets/Doozy/Runtime/Reactor/Easings/Eases/ExponentialEaseInOutEasing.cs"
"Assets/Doozy/Runtime/Reactor/Easings/Eases/ExponentialEaseOutEasing.cs"
"Assets/Doozy/Runtime/Reactor/Easings/Eases/LinearEasing.cs"
"Assets/Doozy/Runtime/Reactor/Easings/Eases/QuadraticEaseInEasing.cs"
"Assets/Doozy/Runtime/Reactor/Easings/Eases/QuadraticEaseInOutEasing.cs"
"Assets/Doozy/Runtime/Reactor/Easings/Eases/QuadraticEaseOutEasing.cs"
"Assets/Doozy/Runtime/Reactor/Easings/Eases/QuarticEaseInEasing.cs"
"Assets/Doozy/Runtime/Reactor/Easings/Eases/QuarticEaseInOutEasing.cs"
"Assets/Doozy/Runtime/Reactor/Easings/Eases/QuarticEaseOutEasing.cs"
"Assets/Doozy/Runtime/Reactor/Easings/Eases/QuinticEaseInEasing.cs"
"Assets/Doozy/Runtime/Reactor/Easings/Eases/QuinticEaseInOutEasing.cs"
"Assets/Doozy/Runtime/Reactor/Easings/Eases/QuinticEaseOutEasing.cs"
"Assets/Doozy/Runtime/Reactor/Easings/Eases/SineEaseInEasing.cs"
"Assets/Doozy/Runtime/Reactor/Easings/Eases/SineEaseInOutEasing.cs"
"Assets/Doozy/Runtime/Reactor/Easings/Eases/SineEaseOutEasing.cs"
"Assets/Doozy/Runtime/Reactor/Easings/Eases/SpringEasing.cs"
"Assets/Doozy/Runtime/Reactor/Easings/EasingFunction.cs"
"Assets/Doozy/Runtime/Reactor/Easings/Extensions.cs"
"Assets/Doozy/Runtime/Reactor/Easings/IEasing.cs"
"Assets/Doozy/Runtime/Reactor/Enums/AnimatorBehaviour.cs"
"Assets/Doozy/Runtime/Reactor/Enums/FPS.cs"
"Assets/Doozy/Runtime/Reactor/Enums/FrameReferenceValue.cs"
"Assets/Doozy/Runtime/Reactor/Enums/MoveDirection.cs"
"Assets/Doozy/Runtime/Reactor/Enums/PlayDirection.cs"
"Assets/Doozy/Runtime/Reactor/Enums/PlayMode.cs"
"Assets/Doozy/Runtime/Reactor/Enums/ReactionState.cs"
"Assets/Doozy/Runtime/Reactor/Enums/ReferenceValue.cs"
"Assets/Doozy/Runtime/Reactor/Enums/ResetValue.cs"
"Assets/Doozy/Runtime/Reactor/Enums/UIAnimationType.cs"
"Assets/Doozy/Runtime/Reactor/Extensions/RectTransformExtensions.cs"
"Assets/Doozy/Runtime/Reactor/Extensions/VisualElementExtensions.cs"
"Assets/Doozy/Runtime/Reactor/Ids/ProgressorId.cs"
"Assets/Doozy/Runtime/Reactor/Interfaces/IProgressTarget.cs"
"Assets/Doozy/Runtime/Reactor/Internal/DynamicReaction.cs"
"Assets/Doozy/Runtime/Reactor/Internal/PropertyGetter.cs"
"Assets/Doozy/Runtime/Reactor/Internal/PropertySetter.cs"
"Assets/Doozy/Runtime/Reactor/Internal/Reaction.cs"
"Assets/Doozy/Runtime/Reactor/Internal/ReactionCallback.cs"
"Assets/Doozy/Runtime/Reactor/Internal/ReactionDictionary.cs"
"Assets/Doozy/Runtime/Reactor/Internal/ReactionExtensions.cs"
"Assets/Doozy/Runtime/Reactor/Internal/ReactionPool.cs"
"Assets/Doozy/Runtime/Reactor/MetaProgressTarget.cs"
"Assets/Doozy/Runtime/Reactor/Progressor.cs"
"Assets/Doozy/Runtime/Reactor/ProgressTarget.cs"
"Assets/Doozy/Runtime/Reactor/Reactions/ColorReaction.cs"
"Assets/Doozy/Runtime/Reactor/Reactions/ColorTargetReaction.cs"
"Assets/Doozy/Runtime/Reactor/Reactions/FloatReaction.cs"
"Assets/Doozy/Runtime/Reactor/Reactions/IntReaction.cs"
"Assets/Doozy/Runtime/Reactor/Reactions/ReflectedFloatReaction.cs"
"Assets/Doozy/Runtime/Reactor/Reactions/ReflectedIntReaction.cs"
"Assets/Doozy/Runtime/Reactor/Reactions/ReflectedVector2Reaction.cs"
"Assets/Doozy/Runtime/Reactor/Reactions/ReflectedVector3Reaction.cs"
"Assets/Doozy/Runtime/Reactor/Reactions/SpriteReaction.cs"
"Assets/Doozy/Runtime/Reactor/Reactions/SpriteTargetReaction.cs"
"Assets/Doozy/Runtime/Reactor/Reactions/Texture2DReaction.cs"
"Assets/Doozy/Runtime/Reactor/Reactions/UIFadeReaction.cs"
"Assets/Doozy/Runtime/Reactor/Reactions/UIMoveReaction.cs"
"Assets/Doozy/Runtime/Reactor/Reactions/UIRotateReaction.cs"
"Assets/Doozy/Runtime/Reactor/Reactions/UIScaleReaction.cs"
"Assets/Doozy/Runtime/Reactor/Reactions/Vector2Reaction.cs"
"Assets/Doozy/Runtime/Reactor/Reactions/Vector3Reaction.cs"
"Assets/Doozy/Runtime/Reactor/ReactionSettings.cs"
"Assets/Doozy/Runtime/Reactor/Reactor.cs"
"Assets/Doozy/Runtime/Reactor/ReactorController.cs"
"Assets/Doozy/Runtime/Reactor/ReactorUtils.cs"
"Assets/Doozy/Runtime/Reactor/Reflection/Enums/ValueDetails.cs"
"Assets/Doozy/Runtime/Reactor/Reflection/Internal/MetaReflectedValue.cs"
"Assets/Doozy/Runtime/Reactor/Reflection/Internal/ReflectedValue.cs"
"Assets/Doozy/Runtime/Reactor/Reflection/ReflectedFloat.cs"
"Assets/Doozy/Runtime/Reactor/Reflection/ReflectedInt.cs"
"Assets/Doozy/Runtime/Reactor/Reflection/ReflectedRect.cs"
"Assets/Doozy/Runtime/Reactor/Reflection/ReflectedVector2.cs"
"Assets/Doozy/Runtime/Reactor/Reflection/ReflectedVector3.cs"
"Assets/Doozy/Runtime/Reactor/ScriptableObjects/Internal/PresetCategory.cs"
"Assets/Doozy/Runtime/Reactor/ScriptableObjects/Internal/UIAnimationPresetGroup.cs"
"Assets/Doozy/Runtime/Reactor/ScriptableObjects/ReactorSettings.cs"
"Assets/Doozy/Runtime/Reactor/ScriptableObjects/UIAnimationPreset.cs"
"Assets/Doozy/Runtime/Reactor/ScriptableObjects/UIAnimationPresetDatabase.cs"
"Assets/Doozy/Runtime/Reactor/Targets/ColorTargets/ImageColorTarget.cs"
"Assets/Doozy/Runtime/Reactor/Targets/ColorTargets/TextColorTarget.cs"
"Assets/Doozy/Runtime/Reactor/Targets/ColorTargets/TextMeshProColorTarget.cs"
"Assets/Doozy/Runtime/Reactor/Targets/Internal/ReactorColorTarget.cs"
"Assets/Doozy/Runtime/Reactor/Targets/Internal/ReactorMetaColorTarget.cs"
"Assets/Doozy/Runtime/Reactor/Targets/Internal/ReactorMetaSpriteTarget.cs"
"Assets/Doozy/Runtime/Reactor/Targets/Internal/ReactorSpriteTarget.cs"
"Assets/Doozy/Runtime/Reactor/Targets/ProgressTargets/AnimatorProgressTarget.cs"
"Assets/Doozy/Runtime/Reactor/Targets/ProgressTargets/AudioMixerProgressTarget.cs"
"Assets/Doozy/Runtime/Reactor/Targets/ProgressTargets/ImageProgressTarget.cs"
"Assets/Doozy/Runtime/Reactor/Targets/ProgressTargets/TextMeshProProgressTarget.cs"
"Assets/Doozy/Runtime/Reactor/Targets/ProgressTargets/TextProgressTarget.cs"
"Assets/Doozy/Runtime/Reactor/Targets/ProgressTargets/UnityEventProgressTarget.cs"
"Assets/Doozy/Runtime/Reactor/Targets/SpriteTargets/ImageSpriteTarget.cs"
"Assets/Doozy/Runtime/Reactor/Targets/SpriteTargets/SpriteMaskSpriteTarget.cs"
"Assets/Doozy/Runtime/Reactor/Targets/SpriteTargets/SpriteRendererSpriteTarget.cs"
"Assets/Doozy/Runtime/Reactor/Ticker/Heartbeat.cs"
"Assets/Doozy/Runtime/Reactor/Ticker/IUseTickService.cs"
"Assets/Doozy/Runtime/Reactor/Ticker/RuntimeHeartbeat.cs"
"Assets/Doozy/Runtime/Reactor/Ticker/RuntimeTicker.cs"
"Assets/Doozy/Runtime/Reactor/Ticker/TickService.cs"
"Assets/Doozy/Runtime/RuntimePath.cs"
"Assets/Doozy/Runtime/SceneManagement/Enums/GetSceneBy.cs"
"Assets/Doozy/Runtime/SceneManagement/Events/ActiveSceneChangedEvent.cs"
"Assets/Doozy/Runtime/SceneManagement/Events/SceneLoadedEvent.cs"
"Assets/Doozy/Runtime/SceneManagement/Events/SceneUnloadedEvent.cs"
"Assets/Doozy/Runtime/SceneManagement/Nodes/ActivateLoadedScenesNode.cs"
"Assets/Doozy/Runtime/SceneManagement/Nodes/LoadSceneNode.cs"
"Assets/Doozy/Runtime/SceneManagement/Nodes/UnloadSceneNode.cs"
"Assets/Doozy/Runtime/SceneManagement/SceneDirector.cs"
"Assets/Doozy/Runtime/SceneManagement/SceneLoader.cs"
"Assets/Doozy/Runtime/SceneManagement/SceneLoaderSignalData.cs"
"Assets/Doozy/Runtime/SceneManagement/SceneUtils.cs"
"Assets/Doozy/Runtime/SceneManagement/ScriptableObjects/SceneManagementSettings.cs"
"Assets/Doozy/Runtime/Signals/BaseStreamListener.cs"
"Assets/Doozy/Runtime/Signals/Enums/ProviderType.cs"
"Assets/Doozy/Runtime/Signals/Enums/StreamConnection.cs"
"Assets/Doozy/Runtime/Signals/Interfaces/ISignalProvider.cs"
"Assets/Doozy/Runtime/Signals/Interfaces/ISignalReceiver.cs"
"Assets/Doozy/Runtime/Signals/MetaSignal.cs"
"Assets/Doozy/Runtime/Signals/MultiSignalsReceiver.cs"
"Assets/Doozy/Runtime/Signals/ProviderAttributes.cs"
"Assets/Doozy/Runtime/Signals/ProviderId.cs"
"Assets/Doozy/Runtime/Signals/Signal.cs"
"Assets/Doozy/Runtime/Signals/SignalEvent.cs"
"Assets/Doozy/Runtime/Signals/SignalPayload.cs"
"Assets/Doozy/Runtime/Signals/SignalPool.cs"
"Assets/Doozy/Runtime/Signals/SignalProvider.cs"
"Assets/Doozy/Runtime/Signals/SignalProviderExtension.cs"
"Assets/Doozy/Runtime/Signals/SignalReceiver.cs"
"Assets/Doozy/Runtime/Signals/Signals.cs"
"Assets/Doozy/Runtime/Signals/SignalSender.cs"
"Assets/Doozy/Runtime/Signals/SignalsService.cs"
"Assets/Doozy/Runtime/Signals/SignalStream.cs"
"Assets/Doozy/Runtime/Signals/StreamId.cs"
"Assets/Doozy/Runtime/UIDesigner/Enums/Align.cs"
"Assets/Doozy/Runtime/UIDesigner/Enums/AlignMode.cs"
"Assets/Doozy/Runtime/UIDesigner/Enums/AlignTo.cs"
"Assets/Doozy/Runtime/UIDesigner/Enums/Axis.cs"
"Assets/Doozy/Runtime/UIDesigner/Enums/Distribute.cs"
"Assets/Doozy/Runtime/UIDesigner/Enums/Space.cs"
"Assets/Doozy/Runtime/UIDesigner/RectTransformExtensions.cs"
"Assets/Doozy/Runtime/UIDesigner/Utils/DesignerUtils.cs"
"Assets/Doozy/Runtime/UIElements/EdgeValues.cs"
"Assets/Doozy/Runtime/UIElements/Extensions/TextElementExtensions.cs"
"Assets/Doozy/Runtime/UIElements/Extensions/TextFieldExtensions.cs"
"Assets/Doozy/Runtime/UIElements/Extensions/VisualElementExtensions.cs"
"Assets/Doozy/Runtime/UIElements/UIElementsUtils.cs"
"Assets/Doozy/Runtime/UIManager/Animators/Internal/BaseTargetComponentAnimator.cs"
"Assets/Doozy/Runtime/UIManager/Animators/Internal/BaseUIContainerAnimator.cs"
"Assets/Doozy/Runtime/UIManager/Animators/Internal/BaseUISelectableAnimator.cs"
"Assets/Doozy/Runtime/UIManager/Animators/UIContainerColorAnimator.cs"
"Assets/Doozy/Runtime/UIManager/Animators/UIContainerFloatAnimator.cs"
"Assets/Doozy/Runtime/UIManager/Animators/UIContainerIntAnimator.cs"
"Assets/Doozy/Runtime/UIManager/Animators/UIContainerSpriteAnimator.cs"
"Assets/Doozy/Runtime/UIManager/Animators/UIContainerUIAnimator.cs"
"Assets/Doozy/Runtime/UIManager/Animators/UIContainerVector2Animator.cs"
"Assets/Doozy/Runtime/UIManager/Animators/UIContainerVector3Animator.cs"
"Assets/Doozy/Runtime/UIManager/Animators/UISelectableColorAnimator.cs"
"Assets/Doozy/Runtime/UIManager/Animators/UISelectableFloatAnimator.cs"
"Assets/Doozy/Runtime/UIManager/Animators/UISelectableIntAnimator.cs"
"Assets/Doozy/Runtime/UIManager/Animators/UISelectableSpriteAnimator.cs"
"Assets/Doozy/Runtime/UIManager/Animators/UISelectableUIAnimator.cs"
"Assets/Doozy/Runtime/UIManager/Animators/UISelectableVector2Animator.cs"
"Assets/Doozy/Runtime/UIManager/Animators/UISelectableVector3Animator.cs"
"Assets/Doozy/Runtime/UIManager/Audio/SignalToAudioSource.cs"
"Assets/Doozy/Runtime/UIManager/Audio/UIContainerAudio.cs"
"Assets/Doozy/Runtime/UIManager/Audio/UISelectableAudio.cs"
"Assets/Doozy/Runtime/UIManager/Behaviours/UIBehaviour.cs"
"Assets/Doozy/Runtime/UIManager/Behaviours/UIBehaviourExtension.cs"
"Assets/Doozy/Runtime/UIManager/Behaviours/UIBehaviours.cs"
"Assets/Doozy/Runtime/UIManager/Components/Internal/UISelectableComponent.cs"
"Assets/Doozy/Runtime/UIManager/Components/UIButton.cs"
"Assets/Doozy/Runtime/UIManager/Components/UIScrollbar.cs"
"Assets/Doozy/Runtime/UIManager/Components/UISelectable.cs"
"Assets/Doozy/Runtime/UIManager/Components/UISlider.cs"
"Assets/Doozy/Runtime/UIManager/Components/UITag.cs"
"Assets/Doozy/Runtime/UIManager/Components/UIToggle.cs"
"Assets/Doozy/Runtime/UIManager/Components/UIToggleGroup.cs"
"Assets/Doozy/Runtime/UIManager/Containers/Internal/UIContainerComponent.cs"
"Assets/Doozy/Runtime/UIManager/Containers/UIContainer.cs"
"Assets/Doozy/Runtime/UIManager/Containers/UIPopup.cs"
"Assets/Doozy/Runtime/UIManager/Containers/UITooltip.cs"
"Assets/Doozy/Runtime/UIManager/Containers/UIView.cs"
"Assets/Doozy/Runtime/UIManager/Enums/Anchor.cs"
"Assets/Doozy/Runtime/UIManager/Enums/Axis.cs"
"Assets/Doozy/Runtime/UIManager/Enums/ButtonTrigger.cs"
"Assets/Doozy/Runtime/UIManager/Enums/CommandShowHide.cs"
"Assets/Doozy/Runtime/UIManager/Enums/CommandToggle.cs"
"Assets/Doozy/Runtime/UIManager/Enums/ContainerBehaviour.cs"
"Assets/Doozy/Runtime/UIManager/Enums/ShowHideExecute.cs"
"Assets/Doozy/Runtime/UIManager/Enums/ShowHideMode.cs"
"Assets/Doozy/Runtime/UIManager/Enums/SlideDirection.cs"
"Assets/Doozy/Runtime/UIManager/Enums/UISelectionState.cs"
"Assets/Doozy/Runtime/UIManager/Enums/VisibilityBehaviour.cs"
"Assets/Doozy/Runtime/UIManager/Enums/VisibilityState.cs"
"Assets/Doozy/Runtime/UIManager/Events/BaseEventDataEvent.cs"
"Assets/Doozy/Runtime/UIManager/Events/PointerEventDataEvent.cs"
"Assets/Doozy/Runtime/UIManager/Events/ToggleValueChangedEvent.cs"
"Assets/Doozy/Runtime/UIManager/Events/UISelectionStateEvent.cs"
"Assets/Doozy/Runtime/UIManager/Events/VisibilityStateEvent.cs"
"Assets/Doozy/Runtime/UIManager/Extensions/RectTransformExtensions.cs"
"Assets/Doozy/Runtime/UIManager/Extensions/Vector3Extensions.cs"
"Assets/Doozy/Runtime/UIManager/Ids/UIButtonId.cs"
"Assets/Doozy/Runtime/UIManager/Ids/UISliderId.cs"
"Assets/Doozy/Runtime/UIManager/Ids/UITagId.cs"
"Assets/Doozy/Runtime/UIManager/Ids/UIToggleId.cs"
"Assets/Doozy/Runtime/UIManager/Ids/UIViewId.cs"
"Assets/Doozy/Runtime/UIManager/Ids/UIViewIdExtension.cs"
"Assets/Doozy/Runtime/UIManager/Input/BackButton.cs"
"Assets/Doozy/Runtime/UIManager/Input/Enums/InputHandling.cs"
"Assets/Doozy/Runtime/UIManager/Input/Enums/LegacyInputMode.cs"
"Assets/Doozy/Runtime/UIManager/Input/Enums/UIInputActionName.cs"
"Assets/Doozy/Runtime/UIManager/Input/InputStream.cs"
"Assets/Doozy/Runtime/UIManager/Input/InputToSignal.cs"
"Assets/Doozy/Runtime/UIManager/Input/Interfaces/IUseMultiplayerInfo.cs"
"Assets/Doozy/Runtime/UIManager/Input/MultiplayerInfo.cs"
"Assets/Doozy/Runtime/UIManager/Interfaces/IValueChangedEvent.cs"
"Assets/Doozy/Runtime/UIManager/Layouts/Internal/SetPropertyUtility.cs"
"Assets/Doozy/Runtime/UIManager/Layouts/Internal/UILayoutGroup.cs"
"Assets/Doozy/Runtime/UIManager/Layouts/LayoutsContextMenu.cs"
"Assets/Doozy/Runtime/UIManager/Layouts/UIBehaviourHandler.cs"
"Assets/Doozy/Runtime/UIManager/Layouts/UIRadialLayout.cs"
"Assets/Doozy/Runtime/UIManager/Listeners/Internal/BaseListener.cs"
"Assets/Doozy/Runtime/UIManager/Listeners/SignalListener.cs"
"Assets/Doozy/Runtime/UIManager/Listeners/UIButtonListener.cs"
"Assets/Doozy/Runtime/UIManager/Listeners/UIToggleListener.cs"
"Assets/Doozy/Runtime/UIManager/Listeners/UIViewListener.cs"
"Assets/Doozy/Runtime/UIManager/Modules/AnimatorModule.cs"
"Assets/Doozy/Runtime/UIManager/Modules/AudioSourceModule.cs"
"Assets/Doozy/Runtime/UIManager/Modules/UnityEventModule.cs"
"Assets/Doozy/Runtime/UIManager/Nodes/BackButtonNode.cs"
"Assets/Doozy/Runtime/UIManager/Nodes/Listeners/BackButtonNodyListener.cs"
"Assets/Doozy/Runtime/UIManager/Nodes/Listeners/Internal/BaseNodyListener.cs"
"Assets/Doozy/Runtime/UIManager/Nodes/Listeners/StreamNodyListener.cs"
"Assets/Doozy/Runtime/UIManager/Nodes/Listeners/UIButtonNodyListener.cs"
"Assets/Doozy/Runtime/UIManager/Nodes/Listeners/UIToggleNodyListener.cs"
"Assets/Doozy/Runtime/UIManager/Nodes/Listeners/UIViewNodyListener.cs"
"Assets/Doozy/Runtime/UIManager/Nodes/PortalNode.cs"
"Assets/Doozy/Runtime/UIManager/Nodes/PortData/GoBackInputPortData.cs"
"Assets/Doozy/Runtime/UIManager/Nodes/PortData/UIOutputPortData.cs"
"Assets/Doozy/Runtime/UIManager/Nodes/SignalNode.cs"
"Assets/Doozy/Runtime/UIManager/Nodes/UINode.cs"
"Assets/Doozy/Runtime/UIManager/Options/UIViewShowHideOption.cs"
"Assets/Doozy/Runtime/UIManager/RuntimeUIManagerPath.cs"
"Assets/Doozy/Runtime/UIManager/ScriptableObjects/Internal/PrefabLinkDatabase.cs"
"Assets/Doozy/Runtime/UIManager/ScriptableObjects/UIManagerInputSettings.cs"
"Assets/Doozy/Runtime/UIManager/ScriptableObjects/UIManagerSettings.cs"
"Assets/Doozy/Runtime/UIManager/ScriptableObjects/UIPopupDatabase.cs"
"Assets/Doozy/Runtime/UIManager/ScriptableObjects/UIPopupLink.cs"
"Assets/Doozy/Runtime/UIManager/ScriptableObjects/UITooltipDatabase.cs"
"Assets/Doozy/Runtime/UIManager/ScriptableObjects/UITooltipLink.cs"
"Assets/Doozy/Runtime/UIManager/SignalData/InputSignalData.cs"
"Assets/Doozy/Runtime/UIManager/SignalData/UIButtonSignalData.cs"
"Assets/Doozy/Runtime/UIManager/SignalData/UIToggleSignalData.cs"
"Assets/Doozy/Runtime/UIManager/SignalData/UIViewSignalData.cs"
"Assets/Doozy/Runtime/UIManager/Structs/UISelectableState.cs"
"Assets/Doozy/Runtime/UIManager/Triggers/InputBackButtonTrigger.cs"
"Assets/Doozy/Runtime/UIManager/Triggers/PointerClickTrigger.cs"
"Assets/Doozy/Runtime/UIManager/Triggers/PointerDoubleClickTrigger.cs"
"Assets/Doozy/Runtime/UIManager/Triggers/PointerDownTrigger.cs"
"Assets/Doozy/Runtime/UIManager/Triggers/PointerEnterTrigger.cs"
"Assets/Doozy/Runtime/UIManager/Triggers/PointerExitTrigger.cs"
"Assets/Doozy/Runtime/UIManager/Triggers/PointerLeftClickTrigger.cs"
"Assets/Doozy/Runtime/UIManager/Triggers/PointerLongClickTrigger.cs"
"Assets/Doozy/Runtime/UIManager/Triggers/PointerMiddleClickTrigger.cs"
"Assets/Doozy/Runtime/UIManager/Triggers/PointerRightClickTrigger.cs"
"Assets/Doozy/Runtime/UIManager/Triggers/PointerUpTrigger.cs"
"Assets/Doozy/Runtime/UIManager/Triggers/UIDeselectedTrigger.cs"
"Assets/Doozy/Runtime/UIManager/Triggers/UISelectedTrigger.cs"
"Assets/Doozy/Runtime/UIManager/Triggers/UISubmitTrigger.cs"
"Assets/Doozy/Runtime/UIManager/Triggers/UITooltipTrigger.cs"
"Assets/Doozy/Runtime/UIManager/UIMenu/UIMenuCamera.cs"
"Assets/Doozy/Runtime/UIManager/UISettings.cs"
"Assets/Doozy/Runtime/UIManager/Utils/LayoutUtils.cs"
"Assets/Doozy/Runtime/UIManager/Utils/MultipleDisplayUtilities.cs"
"Assets/Doozy/Runtime/UIManager/Visual/SignalToColorTarget.cs"
"Assets/Doozy/Runtime/UIManager/Visual/SignalToSpriteTarget.cs"
"Assets/Doozy/Runtime/UIManager/Visual/UIContainerSpriteSwapper.cs"
"Assets/Doozy/Runtime/UIManager/Visual/UISelectableSpriteSwapper.cs"
"Assets/Doozy/_Examples/Common/Runtime/Scripts/PrintToConsole.cs"
"Assets/Doozy/_Examples/E22 - Popup - without Buttons/ShowSimplePopup.cs"
"Assets/Doozy/_Examples/E23 - Popup - with One Button/ShowOneButtonPopup.cs"
"Assets/Doozy/_Examples/E24 - Popup - with Two Buttons/ShowTwoButtonsPopup.cs"
"Assets/Script/Left.cs"
"Assets/Script/LoadingRotate.cs"
"Assets/Script/Number.cs"
"Assets/Script/test.cs"
"Assets/Script/TimesealeInfo.cs"
"Assets/TextMesh Pro/Examples & Extras/Scripts/Benchmark01.cs"
"Assets/TextMesh Pro/Examples & Extras/Scripts/Benchmark01_UGUI.cs"
"Assets/TextMesh Pro/Examples & Extras/Scripts/Benchmark02.cs"
"Assets/TextMesh Pro/Examples & Extras/Scripts/Benchmark03.cs"
"Assets/TextMesh Pro/Examples & Extras/Scripts/Benchmark04.cs"
"Assets/TextMesh Pro/Examples & Extras/Scripts/CameraController.cs"
"Assets/TextMesh Pro/Examples & Extras/Scripts/ChatController.cs"
"Assets/TextMesh Pro/Examples & Extras/Scripts/DropdownSample.cs"
"Assets/TextMesh Pro/Examples & Extras/Scripts/EnvMapAnimator.cs"
"Assets/TextMesh Pro/Examples & Extras/Scripts/ObjectSpin.cs"
"Assets/TextMesh Pro/Examples & Extras/Scripts/ShaderPropAnimator.cs"
"Assets/TextMesh Pro/Examples & Extras/Scripts/SimpleScript.cs"
"Assets/TextMesh Pro/Examples & Extras/Scripts/SkewTextExample.cs"
"Assets/TextMesh Pro/Examples & Extras/Scripts/TeleType.cs"
"Assets/TextMesh Pro/Examples & Extras/Scripts/TextConsoleSimulator.cs"
"Assets/TextMesh Pro/Examples & Extras/Scripts/TextMeshProFloatingText.cs"
"Assets/TextMesh Pro/Examples & Extras/Scripts/TextMeshSpawner.cs"
"Assets/TextMesh Pro/Examples & Extras/Scripts/TMPro_InstructionOverlay.cs"
"Assets/TextMesh Pro/Examples & Extras/Scripts/TMP_DigitValidator.cs"
"Assets/TextMesh Pro/Examples & Extras/Scripts/TMP_ExampleScript_01.cs"
"Assets/TextMesh Pro/Examples & Extras/Scripts/TMP_FrameRateCounter.cs"
"Assets/TextMesh Pro/Examples & Extras/Scripts/TMP_PhoneNumberValidator.cs"
"Assets/TextMesh Pro/Examples & Extras/Scripts/TMP_TextEventCheck.cs"
"Assets/TextMesh Pro/Examples & Extras/Scripts/TMP_TextEventHandler.cs"
"Assets/TextMesh Pro/Examples & Extras/Scripts/TMP_TextInfoDebugTool.cs"
"Assets/TextMesh Pro/Examples & Extras/Scripts/TMP_TextSelector_A.cs"
"Assets/TextMesh Pro/Examples & Extras/Scripts/TMP_TextSelector_B.cs"
"Assets/TextMesh Pro/Examples & Extras/Scripts/TMP_UiFrameRateCounter.cs"
"Assets/TextMesh Pro/Examples & Extras/Scripts/VertexColorCycler.cs"
"Assets/TextMesh Pro/Examples & Extras/Scripts/VertexJitter.cs"
"Assets/TextMesh Pro/Examples & Extras/Scripts/VertexShakeA.cs"
"Assets/TextMesh Pro/Examples & Extras/Scripts/VertexShakeB.cs"
"Assets/TextMesh Pro/Examples & Extras/Scripts/VertexZoom.cs"
"Assets/TextMesh Pro/Examples & Extras/Scripts/WarpTextExample.cs"
-langversion:9.0

/deterministic
/optimize+
/debug:portable
/nologo
/RuntimeMetadataVersion:v4.0.30319

/nowarn:0169
/nowarn:0649
/nowarn:1701
/nowarn:1702
/utf8output
/preferreduilang:en-US


/additionalfile:"Library/Bee/artifacts/1900b0aE.dag/Assembly-CSharp.AdditionalFile.txt"