Library\Bee\artifacts\mvdfrm\Unity.Burst.ref.dll_F30DFA20C0DD1968.mvfrm
Library\Bee\artifacts\mvdfrm\Unity.Burst.Cecil.dll_35D85AB291ED1B76.mvfrm
Library\Bee\artifacts\mvdfrm\Unity.Burst.Cecil.Pdb.dll_E13AA2B91B858DB6.mvfrm
Library\Bee\artifacts\mvdfrm\Unity.Burst.Cecil.Rocks.dll_A206CB1861AC8096.mvfrm
Library\Bee\artifacts\mvdfrm\Unity.CompilationPipeline.Common.dll_76413A817B4149F1.mvfrm
Library\Bee\artifacts\mvdfrm\UnityEditor.Graphs.dll_12E6EF78297D4AD5.mvfrm
Library\Bee\artifacts\mvdfrm\UnityEditor.CoreModule.dll_E2A6DCCF3C5623A3.mvfrm
Library\Bee\artifacts\mvdfrm\UnityEditor.DeviceSimulatorModule.dll_B4A625FF1201D08E.mvfrm
Library\Bee\artifacts\mvdfrm\UnityEditor.DiagnosticsModule.dll_5D9BC4C2DDEE2F5C.mvfrm
Library\Bee\artifacts\mvdfrm\UnityEditor.dll_F7C868E0C1D51482.mvfrm
Library\Bee\artifacts\mvdfrm\UnityEditor.GraphViewModule.dll_90FBFBF753C2FFB3.mvfrm
Library\Bee\artifacts\mvdfrm\UnityEditor.PackageManagerUIModule.dll_909432143E86D33F.mvfrm
Library\Bee\artifacts\mvdfrm\UnityEditor.QuickSearchModule.dll_E8AB45D036C52BB5.mvfrm
Library\Bee\artifacts\mvdfrm\UnityEditor.SceneTemplateModule.dll_7BF36152E4FD22D6.mvfrm
Library\Bee\artifacts\mvdfrm\UnityEditor.TextCoreFontEngineModule.dll_F1D4D9F010C1E1C1.mvfrm
Library\Bee\artifacts\mvdfrm\UnityEditor.TextCoreTextEngineModule.dll_39BD1061A0459ADF.mvfrm
Library\Bee\artifacts\mvdfrm\UnityEditor.UIBuilderModule.dll_E584A913C67B78E7.mvfrm
Library\Bee\artifacts\mvdfrm\UnityEditor.UIElementsModule.dll_66027BEBF6A77DFF.mvfrm
Library\Bee\artifacts\mvdfrm\UnityEditor.UIElementsSamplesModule.dll_B7CD672D5369A85E.mvfrm
Library\Bee\artifacts\mvdfrm\UnityEditor.UIServiceModule.dll_1E76BA76AFB2C901.mvfrm
Library\Bee\artifacts\mvdfrm\UnityEditor.UnityConnectModule.dll_5D4DF5F834C1A3D9.mvfrm
Library\Bee\artifacts\mvdfrm\UnityEngine.AccessibilityModule.dll_AE98CCE9E5734A73.mvfrm
Library\Bee\artifacts\mvdfrm\UnityEngine.AIModule.dll_D11FF9D4ACF95B97.mvfrm
Library\Bee\artifacts\mvdfrm\UnityEngine.AndroidJNIModule.dll_E44B64BF3FC6ECD5.mvfrm
Library\Bee\artifacts\mvdfrm\UnityEngine.AnimationModule.dll_5F8178202E1FD459.mvfrm
Library\Bee\artifacts\mvdfrm\UnityEngine.ARModule.dll_8A92BED80A16BA60.mvfrm
Library\Bee\artifacts\mvdfrm\UnityEngine.AssetBundleModule.dll_2C9478C1992BE0A7.mvfrm
Library\Bee\artifacts\mvdfrm\UnityEngine.AudioModule.dll_645D8932D9EAF70B.mvfrm
Library\Bee\artifacts\mvdfrm\UnityEngine.ClothModule.dll_CB45E62DB407D5EF.mvfrm
Library\Bee\artifacts\mvdfrm\UnityEngine.ClusterInputModule.dll_DCEA6B0DE649769F.mvfrm
Library\Bee\artifacts\mvdfrm\UnityEngine.ClusterRendererModule.dll_BA52E87081BCDE12.mvfrm
Library\Bee\artifacts\mvdfrm\UnityEngine.CoreModule.dll_05C7B021E45B8ECE.mvfrm
Library\Bee\artifacts\mvdfrm\UnityEngine.CrashReportingModule.dll_9AFB318100A06F26.mvfrm
Library\Bee\artifacts\mvdfrm\UnityEngine.DirectorModule.dll_54C4F7ECD2C8206B.mvfrm
Library\Bee\artifacts\mvdfrm\UnityEngine.dll_2A6CAFB92048A167.mvfrm
Library\Bee\artifacts\mvdfrm\UnityEngine.DSPGraphModule.dll_5A1659564528F18C.mvfrm
Library\Bee\artifacts\mvdfrm\UnityEngine.GameCenterModule.dll_0E98AEDA0607DDC6.mvfrm
Library\Bee\artifacts\mvdfrm\UnityEngine.GIModule.dll_695C42E248A843B1.mvfrm
Library\Bee\artifacts\mvdfrm\UnityEngine.GridModule.dll_E338CC0FFCB024C5.mvfrm
Library\Bee\artifacts\mvdfrm\UnityEngine.HotReloadModule.dll_E0CA36260952EFDB.mvfrm
Library\Bee\artifacts\mvdfrm\UnityEngine.ImageConversionModule.dll_2644E62103E19606.mvfrm
Library\Bee\artifacts\mvdfrm\UnityEngine.IMGUIModule.dll_9CBD2899A01C8AEC.mvfrm
Library\Bee\artifacts\mvdfrm\UnityEngine.InputLegacyModule.dll_BDD993E0311D9698.mvfrm
Library\Bee\artifacts\mvdfrm\UnityEngine.InputModule.dll_CAD350E350231BAF.mvfrm
Library\Bee\artifacts\mvdfrm\UnityEngine.JSONSerializeModule.dll_0EB05625E4AEAAFD.mvfrm
Library\Bee\artifacts\mvdfrm\UnityEngine.LocalizationModule.dll_1B3735607DC56998.mvfrm
Library\Bee\artifacts\mvdfrm\UnityEngine.NVIDIAModule.dll_4B660D3E32C8C8FA.mvfrm
Library\Bee\artifacts\mvdfrm\UnityEngine.ParticleSystemModule.dll_EE0D7ACD6EB1FAB4.mvfrm
Library\Bee\artifacts\mvdfrm\UnityEngine.PerformanceReportingModule.dll_2851F7BE7739718D.mvfrm
Library\Bee\artifacts\mvdfrm\UnityEngine.Physics2DModule.dll_AC276810CF1CCBEE.mvfrm
Library\Bee\artifacts\mvdfrm\UnityEngine.PhysicsModule.dll_9E479B17F7FFC13C.mvfrm
Library\Bee\artifacts\mvdfrm\UnityEngine.ProfilerModule.dll_870B31236C21A778.mvfrm
Library\Bee\artifacts\mvdfrm\UnityEngine.RuntimeInitializeOnLoadManagerInitializerModule.dll_B038637163F718B7.mvfrm
Library\Bee\artifacts\mvdfrm\UnityEngine.ScreenCaptureModule.dll_289803AAF91AD75F.mvfrm
Library\Bee\artifacts\mvdfrm\UnityEngine.SharedInternalsModule.dll_AA5624F67B0F9156.mvfrm
Library\Bee\artifacts\mvdfrm\UnityEngine.SpriteMaskModule.dll_F7C5216A27777340.mvfrm
Library\Bee\artifacts\mvdfrm\UnityEngine.SpriteShapeModule.dll_45F5A61C4ECE18B1.mvfrm
Library\Bee\artifacts\mvdfrm\UnityEngine.StreamingModule.dll_141665707DA78B97.mvfrm
Library\Bee\artifacts\mvdfrm\UnityEngine.SubstanceModule.dll_F0C179B9C8FA89A5.mvfrm
Library\Bee\artifacts\mvdfrm\UnityEngine.SubsystemsModule.dll_627287CBF5BF5B53.mvfrm
Library\Bee\artifacts\mvdfrm\UnityEngine.TerrainModule.dll_B88E1686CDBE0A2A.mvfrm
Library\Bee\artifacts\mvdfrm\UnityEngine.TerrainPhysicsModule.dll_EE8823A087F4F541.mvfrm
Library\Bee\artifacts\mvdfrm\UnityEngine.TextCoreFontEngineModule.dll_7034554323BFA08C.mvfrm
Library\Bee\artifacts\mvdfrm\UnityEngine.TextCoreTextEngineModule.dll_B81C8BB4B34359AA.mvfrm
Library\Bee\artifacts\mvdfrm\UnityEngine.TextRenderingModule.dll_51D775B5B0525754.mvfrm
Library\Bee\artifacts\mvdfrm\UnityEngine.TilemapModule.dll_578A7E07E57AEB33.mvfrm
Library\Bee\artifacts\mvdfrm\UnityEngine.TLSModule.dll_993BA2C4703D6310.mvfrm
Library\Bee\artifacts\mvdfrm\UnityEngine.UIElementsModule.dll_66B0E933F8EB974A.mvfrm
Library\Bee\artifacts\mvdfrm\UnityEngine.UIElementsNativeModule.dll_DB0DE6A9AFFF4361.mvfrm
Library\Bee\artifacts\mvdfrm\UnityEngine.UIModule.dll_CC93980209406143.mvfrm
Library\Bee\artifacts\mvdfrm\UnityEngine.UmbraModule.dll_DF32354B6711A27E.mvfrm
Library\Bee\artifacts\mvdfrm\UnityEngine.UNETModule.dll_986DF80B316A8447.mvfrm
Library\Bee\artifacts\mvdfrm\UnityEngine.UnityAnalyticsModule.dll_0DACEB971AD94CB0.mvfrm
Library\Bee\artifacts\mvdfrm\UnityEngine.UnityConnectModule.dll_4AAD7A072F49A484.mvfrm
Library\Bee\artifacts\mvdfrm\UnityEngine.UnityCurlModule.dll_929E19519E33C646.mvfrm
Library\Bee\artifacts\mvdfrm\UnityEngine.UnityTestProtocolModule.dll_73901D1FAD64FDB4.mvfrm
Library\Bee\artifacts\mvdfrm\UnityEngine.UnityWebRequestAssetBundleModule.dll_B3955D518A457381.mvfrm
Library\Bee\artifacts\mvdfrm\UnityEngine.UnityWebRequestAudioModule.dll_A04E4B9CFDA43C25.mvfrm
Library\Bee\artifacts\mvdfrm\UnityEngine.UnityWebRequestModule.dll_37E3EDCB0ED63085.mvfrm
Library\Bee\artifacts\mvdfrm\UnityEngine.UnityWebRequestTextureModule.dll_6C2EF1803AB4F89A.mvfrm
Library\Bee\artifacts\mvdfrm\UnityEngine.UnityWebRequestWWWModule.dll_82DED110A3031616.mvfrm
Library\Bee\artifacts\mvdfrm\UnityEngine.VehiclesModule.dll_CC87F16C4CF1F006.mvfrm
Library\Bee\artifacts\mvdfrm\UnityEngine.VFXModule.dll_1A1A3B3346AACC7D.mvfrm
Library\Bee\artifacts\mvdfrm\UnityEngine.VideoModule.dll_89670D9D9C7D12B0.mvfrm
Library\Bee\artifacts\mvdfrm\UnityEngine.VirtualTexturingModule.dll_FF9A9B1888ADC3EC.mvfrm
Library\Bee\artifacts\mvdfrm\UnityEngine.VRModule.dll_1F65BE87AAFAE6BB.mvfrm
Library\Bee\artifacts\mvdfrm\UnityEngine.WindModule.dll_7C168B4A75920D37.mvfrm
Library\Bee\artifacts\mvdfrm\UnityEngine.XRModule.dll_5224818C34353419.mvfrm
Library\Bee\artifacts\mvdfrm\UnityEditor.WebGL.Extensions.dll_04403E220A6B8CBD.mvfrm
Library\Bee\artifacts\mvdfrm\UnityEditor.WindowsStandalone.Extensions.dll_58FA862FDB65932D.mvfrm